{
    "apps": [
        {
            "detected eBugs": [
                {
                    "count": 1,
                    "name": "DrawAllocation"
                },
                {
                    "count": 1,
                    "name": "ExcessiveMethodCalls"
                },
                {
                    "count": 1,
                    "name": "HashMapUsage"
                },
                {
                    "count": 6,
                    "name": "MemberIgnoringMethod"
                }
            ],
            "errors": [],
            "id": "70874fc3-99ef-4a06-a7a2-5f3227f9b770",
            "tests": [],
            "transformed eBugs": [
                {
                    "count": 5,
                    "name": "ExcessiveMethodCalls"
                },
                {
                    "count": 8,
                    "name": "MemberIgnoringMethod"
                },
                {
                    "count": 1,
                    "name": "HashMapUsage"
                }
            ]
        },
        {
            "detected eBugs": [
                {
                    "count": 4,
                    "name": "DrawAllocation"
                },
                {
                    "count": 1,
                    "name": "ExcessiveMethodCalls"
                },
                {
                    "count": 1,
                    "name": "HashMapUsage"
                },
                {
                    "count": 12,
                    "name": "MemberIgnoringMethod"
                }
            ],
            "errors": [],
            "id": "22c1e7a6-2a78-4d50-ac56-761ed55b085b",
            "tests": [],
            "transformed eBugs": [
                {
                    "count": 3,
                    "name": "ExcessiveMethodCalls"
                },
                {
                    "count": 2,
                    "name": "HashMapUsage"
                },
                {
                    "count": 8,
                    "name": "MemberIgnoringMethod"
                }
            ]
        },
        {
            "detected eBugs": [
                {
                    "count": 3,
                    "name": "DrawAllocation"
                },
                {
                    "count": 5,
                    "name": "ExcessiveMethodCalls"
                },
                {
                    "count": 1,
                    "name": "HashMapUsage"
                },
                {
                    "count": 18,
                    "name": "MemberIgnoringMethod"
                }
            ],
            "errors": [],
            "id": "89307769-5727-42f9-902e-49f1c1fa1ff1",
            "tests": [
                {
                    "method calls": [
                        {
                            "count": 1,
                            "name": "com.tekinarslan.sample.SampleActivity.java:SampleActivity$onCreate"
                        },
                        {
                            "count": 1,
                            "name": "com.tekinarslan.sample.SampleActivity.java:SampleActivity$openPdfWithFragment"
                        },
                        {
                            "count": 1,
                            "name": "com.tekinarslan.sample.PdfFragment.java:PdfFragment$PdfFragment"
                        },
                        {
                            "count": 1,
                            "name": "com.tekinarslan.sample.PdfFragment.java:PdfFragment$onCreateView"
                        },
                        {
                            "count": 1,
                            "name": "com.tekinarslan.sample.PdfFragment.java:PdfFragment$openFile"
                        },
                        {
                            "count": 1,
                            "name": "com.artifex.mupdfdemo.MuPDFCore.java:MuPDFCore$MuPDFCore"
                        },
                        {
                            "count": 1,
                            "name": "com.artifex.mupdfdemo.SearchTask.java:SearchTask$SearchTask"
                        },
                        {
                            "count": 1,
                            "name": "com.tekinarslan.sample.SampleActivity.java:SampleActivity$onCreateOptionsMenu"
                        },
                        {
                            "count": 1,
                            "name": "com.tekinarslan.sample.PdfFragment.java:PdfFragment$onPause"
                        },
                        {
                            "count": 1,
                            "name": "com.artifex.mupdfdemo.SearchTask.java:SearchTask$stop"
                        }
                    ],
                    "monkey stats": {},
                    "original": {
                        "consumption": [
                            44353.88383200001
                        ],
                        "time": [
                            45031.0
                        ]
                    },
                    "refactored": {
                        "consumption": [
                            37759.59373399997
                        ],
                        "time": [
                            47191.0
                        ]
                    },
                    "seed": 1,
                    "traces": []
                },
                {
                    "method calls": [
                        {
                            "count": 1,
                            "name": "com.tekinarslan.sample.SampleActivity.java:SampleActivity$onCreate"
                        },
                        {
                            "count": 1,
                            "name": "com.tekinarslan.sample.SampleActivity.java:SampleActivity$openPdfWithFragment"
                        },
                        {
                            "count": 1,
                            "name": "com.tekinarslan.sample.PdfFragment.java:PdfFragment$PdfFragment"
                        },
                        {
                            "count": 1,
                            "name": "com.tekinarslan.sample.PdfFragment.java:PdfFragment$onCreateView"
                        },
                        {
                            "count": 1,
                            "name": "com.tekinarslan.sample.PdfFragment.java:PdfFragment$openFile"
                        },
                        {
                            "count": 1,
                            "name": "com.artifex.mupdfdemo.MuPDFCore.java:MuPDFCore$MuPDFCore"
                        },
                        {
                            "count": 1,
                            "name": "com.artifex.mupdfdemo.SearchTask.java:SearchTask$SearchTask"
                        },
                        {
                            "count": 1,
                            "name": "com.tekinarslan.sample.SampleActivity.java:SampleActivity$onCreateOptionsMenu"
                        },
                        {
                            "count": 1,
                            "name": "com.tekinarslan.sample.PdfFragment.java:PdfFragment$onPause"
                        },
                        {
                            "count": 1,
                            "name": "com.artifex.mupdfdemo.SearchTask.java:SearchTask$stop"
                        }
                    ],
                    "monkey stats": {},
                    "original": {
                        "consumption": [
                            42010.76330299999
                        ],
                        "time": [
                            45159.0
                        ]
                    },
                    "refactored": {
                        "consumption": [
                            36051.31804299997
                        ],
                        "time": [
                            46073.0
                        ]
                    },
                    "seed": 2,
                    "traces": []
                },
                {
                    "method calls": [
                        {
                            "count": 1,
                            "name": "com.tekinarslan.sample.SampleActivity.java:SampleActivity$onCreate"
                        },
                        {
                            "count": 1,
                            "name": "com.tekinarslan.sample.SampleActivity.java:SampleActivity$openPdfWithFragment"
                        },
                        {
                            "count": 1,
                            "name": "com.tekinarslan.sample.PdfFragment.java:PdfFragment$PdfFragment"
                        },
                        {
                            "count": 1,
                            "name": "com.tekinarslan.sample.PdfFragment.java:PdfFragment$onCreateView"
                        },
                        {
                            "count": 1,
                            "name": "com.tekinarslan.sample.PdfFragment.java:PdfFragment$openFile"
                        },
                        {
                            "count": 1,
                            "name": "com.artifex.mupdfdemo.MuPDFCore.java:MuPDFCore$MuPDFCore"
                        },
                        {
                            "count": 1,
                            "name": "com.artifex.mupdfdemo.SearchTask.java:SearchTask$SearchTask"
                        },
                        {
                            "count": 1,
                            "name": "com.tekinarslan.sample.SampleActivity.java:SampleActivity$onCreateOptionsMenu"
                        },
                        {
                            "count": 16,
                            "name": "com.tekinarslan.sample.SampleActivity.java:SampleActivity$onQueryTextChange"
                        },
                        {
                            "count": 1,
                            "name": "com.tekinarslan.sample.PdfFragment.java:PdfFragment$onPause"
                        },
                        {
                            "count": 1,
                            "name": "com.artifex.mupdfdemo.SearchTask.java:SearchTask$stop"
                        }
                    ],
                    "monkey stats": {},
                    "original": {
                        "consumption": [
                            46512.22714149998
                        ],
                        "time": [
                            43478.0
                        ]
                    },
                    "refactored": {
                        "consumption": [
                            35229.87211800001
                        ],
                        "time": [
                            47903.0
                        ]
                    },
                    "seed": 3,
                    "traces": []
                },
                {
                    "method calls": [
                        {
                            "count": 1,
                            "name": "com.tekinarslan.sample.SampleActivity.java:SampleActivity$onCreate"
                        },
                        {
                            "count": 1,
                            "name": "com.tekinarslan.sample.SampleActivity.java:SampleActivity$openPdfWithFragment"
                        },
                        {
                            "count": 1,
                            "name": "com.tekinarslan.sample.PdfFragment.java:PdfFragment$PdfFragment"
                        },
                        {
                            "count": 1,
                            "name": "com.tekinarslan.sample.PdfFragment.java:PdfFragment$onCreateView"
                        },
                        {
                            "count": 1,
                            "name": "com.tekinarslan.sample.PdfFragment.java:PdfFragment$openFile"
                        },
                        {
                            "count": 1,
                            "name": "com.artifex.mupdfdemo.MuPDFCore.java:MuPDFCore$MuPDFCore"
                        },
                        {
                            "count": 1,
                            "name": "com.artifex.mupdfdemo.SearchTask.java:SearchTask$SearchTask"
                        },
                        {
                            "count": 1,
                            "name": "com.tekinarslan.sample.SampleActivity.java:SampleActivity$onCreateOptionsMenu"
                        },
                        {
                            "count": 1,
                            "name": "com.tekinarslan.sample.PdfFragment.java:PdfFragment$onPause"
                        },
                        {
                            "count": 1,
                            "name": "com.artifex.mupdfdemo.SearchTask.java:SearchTask$stop"
                        }
                    ],
                    "monkey stats": {},
                    "original": {
                        "consumption": [
                            36468.596142999995
                        ],
                        "time": [
                            46965.0
                        ]
                    },
                    "refactored": {
                        "consumption": [
                            28324.698037000006
                        ],
                        "time": [
                            50990.0
                        ]
                    },
                    "seed": 4,
                    "traces": []
                },
                {
                    "method calls": [
                        {
                            "count": 1,
                            "name": "com.tekinarslan.sample.SampleActivity.java:SampleActivity$onCreate"
                        },
                        {
                            "count": 1,
                            "name": "com.tekinarslan.sample.SampleActivity.java:SampleActivity$openPdfWithFragment"
                        },
                        {
                            "count": 1,
                            "name": "com.tekinarslan.sample.PdfFragment.java:PdfFragment$PdfFragment"
                        },
                        {
                            "count": 1,
                            "name": "com.tekinarslan.sample.PdfFragment.java:PdfFragment$onCreateView"
                        },
                        {
                            "count": 1,
                            "name": "com.tekinarslan.sample.PdfFragment.java:PdfFragment$openFile"
                        },
                        {
                            "count": 1,
                            "name": "com.artifex.mupdfdemo.MuPDFCore.java:MuPDFCore$MuPDFCore"
                        },
                        {
                            "count": 1,
                            "name": "com.artifex.mupdfdemo.SearchTask.java:SearchTask$SearchTask"
                        },
                        {
                            "count": 1,
                            "name": "com.tekinarslan.sample.SampleActivity.java:SampleActivity$onCreateOptionsMenu"
                        },
                        {
                            "count": 1,
                            "name": "com.tekinarslan.sample.PdfFragment.java:PdfFragment$onPause"
                        },
                        {
                            "count": 1,
                            "name": "com.artifex.mupdfdemo.SearchTask.java:SearchTask$stop"
                        }
                    ],
                    "monkey stats": {},
                    "original": {
                        "consumption": [
                            36067.89193199999
                        ],
                        "time": [
                            44796.0
                        ]
                    },
                    "refactored": {
                        "consumption": [
                            28069.278289499984
                        ],
                        "time": [
                            49127.0
                        ]
                    },
                    "seed": 5,
                    "traces": []
                },
                {
                    "method calls": [
                        {
                            "count": 1,
                            "name": "com.tekinarslan.sample.SampleActivity.java:SampleActivity$onCreate"
                        },
                        {
                            "count": 1,
                            "name": "com.tekinarslan.sample.SampleActivity.java:SampleActivity$openPdfWithFragment"
                        },
                        {
                            "count": 1,
                            "name": "com.tekinarslan.sample.PdfFragment.java:PdfFragment$PdfFragment"
                        },
                        {
                            "count": 1,
                            "name": "com.tekinarslan.sample.PdfFragment.java:PdfFragment$onCreateView"
                        },
                        {
                            "count": 1,
                            "name": "com.tekinarslan.sample.PdfFragment.java:PdfFragment$openFile"
                        },
                        {
                            "count": 1,
                            "name": "com.artifex.mupdfdemo.MuPDFCore.java:MuPDFCore$MuPDFCore"
                        },
                        {
                            "count": 1,
                            "name": "com.artifex.mupdfdemo.SearchTask.java:SearchTask$SearchTask"
                        },
                        {
                            "count": 1,
                            "name": "com.tekinarslan.sample.SampleActivity.java:SampleActivity$onCreateOptionsMenu"
                        },
                        {
                            "count": 1,
                            "name": "com.tekinarslan.sample.PdfFragment.java:PdfFragment$onPause"
                        },
                        {
                            "count": 1,
                            "name": "com.artifex.mupdfdemo.SearchTask.java:SearchTask$stop"
                        }
                    ],
                    "monkey stats": {},
                    "original": {
                        "consumption": [
                            36074.861034499976
                        ],
                        "time": [
                            44513.0
                        ]
                    },
                    "refactored": {
                        "consumption": [
                            27782.442032000017
                        ],
                        "time": [
                            49082.0
                        ]
                    },
                    "seed": 6,
                    "traces": []
                },
                {
                    "method calls": [
                        {
                            "count": 1,
                            "name": "com.tekinarslan.sample.SampleActivity.java:SampleActivity$onCreate"
                        },
                        {
                            "count": 1,
                            "name": "com.tekinarslan.sample.SampleActivity.java:SampleActivity$openPdfWithFragment"
                        },
                        {
                            "count": 1,
                            "name": "com.tekinarslan.sample.PdfFragment.java:PdfFragment$PdfFragment"
                        },
                        {
                            "count": 1,
                            "name": "com.tekinarslan.sample.PdfFragment.java:PdfFragment$onCreateView"
                        },
                        {
                            "count": 1,
                            "name": "com.tekinarslan.sample.PdfFragment.java:PdfFragment$openFile"
                        },
                        {
                            "count": 1,
                            "name": "com.artifex.mupdfdemo.MuPDFCore.java:MuPDFCore$MuPDFCore"
                        },
                        {
                            "count": 1,
                            "name": "com.artifex.mupdfdemo.SearchTask.java:SearchTask$SearchTask"
                        },
                        {
                            "count": 1,
                            "name": "com.tekinarslan.sample.SampleActivity.java:SampleActivity$onCreateOptionsMenu"
                        },
                        {
                            "count": 1,
                            "name": "com.tekinarslan.sample.PdfFragment.java:PdfFragment$onPause"
                        },
                        {
                            "count": 1,
                            "name": "com.artifex.mupdfdemo.SearchTask.java:SearchTask$stop"
                        }
                    ],
                    "monkey stats": {},
                    "original": {
                        "consumption": [
                            38026.96881450003
                        ],
                        "time": [
                            52186.0
                        ]
                    },
                    "refactored": {
                        "consumption": [
                            29793.941681499993
                        ],
                        "time": [
                            56504.0
                        ]
                    },
                    "seed": 7,
                    "traces": []
                },
                {
                    "method calls": [
                        {
                            "count": 1,
                            "name": "com.tekinarslan.sample.SampleActivity.java:SampleActivity$onCreate"
                        },
                        {
                            "count": 1,
                            "name": "com.tekinarslan.sample.SampleActivity.java:SampleActivity$openPdfWithFragment"
                        },
                        {
                            "count": 1,
                            "name": "com.tekinarslan.sample.PdfFragment.java:PdfFragment$PdfFragment"
                        },
                        {
                            "count": 1,
                            "name": "com.tekinarslan.sample.PdfFragment.java:PdfFragment$onCreateView"
                        },
                        {
                            "count": 1,
                            "name": "com.tekinarslan.sample.PdfFragment.java:PdfFragment$openFile"
                        },
                        {
                            "count": 1,
                            "name": "com.artifex.mupdfdemo.MuPDFCore.java:MuPDFCore$MuPDFCore"
                        },
                        {
                            "count": 1,
                            "name": "com.artifex.mupdfdemo.SearchTask.java:SearchTask$SearchTask"
                        },
                        {
                            "count": 1,
                            "name": "com.tekinarslan.sample.SampleActivity.java:SampleActivity$onCreateOptionsMenu"
                        },
                        {
                            "count": 1,
                            "name": "com.tekinarslan.sample.PdfFragment.java:PdfFragment$onPause"
                        },
                        {
                            "count": 1,
                            "name": "com.artifex.mupdfdemo.SearchTask.java:SearchTask$stop"
                        }
                    ],
                    "monkey stats": {},
                    "original": {
                        "consumption": [
                            36533.790841499984
                        ],
                        "time": [
                            47472.0
                        ]
                    },
                    "refactored": {
                        "consumption": [
                            28429.60067399996
                        ],
                        "time": [
                            52088.0
                        ]
                    },
                    "seed": 8,
                    "traces": []
                },
                {
                    "method calls": [
                        {
                            "count": 1,
                            "name": "com.tekinarslan.sample.SampleActivity.java:SampleActivity$onCreate"
                        },
                        {
                            "count": 1,
                            "name": "com.tekinarslan.sample.SampleActivity.java:SampleActivity$openPdfWithFragment"
                        },
                        {
                            "count": 1,
                            "name": "com.tekinarslan.sample.PdfFragment.java:PdfFragment$PdfFragment"
                        },
                        {
                            "count": 1,
                            "name": "com.tekinarslan.sample.PdfFragment.java:PdfFragment$onCreateView"
                        },
                        {
                            "count": 1,
                            "name": "com.tekinarslan.sample.PdfFragment.java:PdfFragment$openFile"
                        },
                        {
                            "count": 1,
                            "name": "com.artifex.mupdfdemo.MuPDFCore.java:MuPDFCore$MuPDFCore"
                        },
                        {
                            "count": 1,
                            "name": "com.artifex.mupdfdemo.SearchTask.java:SearchTask$SearchTask"
                        },
                        {
                            "count": 1,
                            "name": "com.tekinarslan.sample.SampleActivity.java:SampleActivity$onCreateOptionsMenu"
                        },
                        {
                            "count": 1,
                            "name": "com.tekinarslan.sample.PdfFragment.java:PdfFragment$onPause"
                        },
                        {
                            "count": 1,
                            "name": "com.artifex.mupdfdemo.SearchTask.java:SearchTask$stop"
                        }
                    ],
                    "monkey stats": {},
                    "original": {
                        "consumption": [
                            36058.88547699998
                        ],
                        "time": [
                            44969.0
                        ]
                    },
                    "refactored": {
                        "consumption": [
                            28032.205536499987
                        ],
                        "time": [
                            49679.0
                        ]
                    },
                    "seed": 9,
                    "traces": []
                },
                {
                    "method calls": [
                        {
                            "count": 1,
                            "name": "com.tekinarslan.sample.SampleActivity.java:SampleActivity$onCreate"
                        },
                        {
                            "count": 1,
                            "name": "com.tekinarslan.sample.SampleActivity.java:SampleActivity$openPdfWithFragment"
                        },
                        {
                            "count": 1,
                            "name": "com.tekinarslan.sample.PdfFragment.java:PdfFragment$PdfFragment"
                        },
                        {
                            "count": 1,
                            "name": "com.tekinarslan.sample.PdfFragment.java:PdfFragment$onCreateView"
                        },
                        {
                            "count": 1,
                            "name": "com.tekinarslan.sample.PdfFragment.java:PdfFragment$openFile"
                        },
                        {
                            "count": 1,
                            "name": "com.artifex.mupdfdemo.MuPDFCore.java:MuPDFCore$MuPDFCore"
                        },
                        {
                            "count": 1,
                            "name": "com.artifex.mupdfdemo.SearchTask.java:SearchTask$SearchTask"
                        },
                        {
                            "count": 1,
                            "name": "com.tekinarslan.sample.SampleActivity.java:SampleActivity$onCreateOptionsMenu"
                        },
                        {
                            "count": 1,
                            "name": "com.tekinarslan.sample.PdfFragment.java:PdfFragment$onPause"
                        },
                        {
                            "count": 1,
                            "name": "com.artifex.mupdfdemo.SearchTask.java:SearchTask$stop"
                        }
                    ],
                    "monkey stats": {},
                    "original": {
                        "consumption": [
                            26667.916914500016
                        ],
                        "time": [
                            44413.0
                        ]
                    },
                    "refactored": {
                        "consumption": [
                            26946.369542000008
                        ],
                        "time": [
                            44402.0
                        ]
                    },
                    "seed": 10,
                    "traces": []
                },
                {
                    "method calls": [
                        {
                            "count": 1,
                            "name": "com.tekinarslan.sample.SampleActivity.java:SampleActivity$onCreate"
                        },
                        {
                            "count": 1,
                            "name": "com.tekinarslan.sample.SampleActivity.java:SampleActivity$openPdfWithFragment"
                        },
                        {
                            "count": 1,
                            "name": "com.tekinarslan.sample.PdfFragment.java:PdfFragment$PdfFragment"
                        },
                        {
                            "count": 1,
                            "name": "com.tekinarslan.sample.PdfFragment.java:PdfFragment$onCreateView"
                        },
                        {
                            "count": 1,
                            "name": "com.tekinarslan.sample.PdfFragment.java:PdfFragment$openFile"
                        },
                        {
                            "count": 1,
                            "name": "com.artifex.mupdfdemo.MuPDFCore.java:MuPDFCore$MuPDFCore"
                        },
                        {
                            "count": 1,
                            "name": "com.artifex.mupdfdemo.SearchTask.java:SearchTask$SearchTask"
                        },
                        {
                            "count": 1,
                            "name": "com.tekinarslan.sample.SampleActivity.java:SampleActivity$onCreateOptionsMenu"
                        },
                        {
                            "count": 1,
                            "name": "com.tekinarslan.sample.PdfFragment.java:PdfFragment$onPause"
                        },
                        {
                            "count": 1,
                            "name": "com.artifex.mupdfdemo.SearchTask.java:SearchTask$stop"
                        }
                    ],
                    "monkey stats": {},
                    "original": {
                        "consumption": [
                            27388.710540500004
                        ],
                        "time": [
                            46773.0
                        ]
                    },
                    "refactored": {
                        "consumption": [
                            27612.512080499968
                        ],
                        "time": [
                            46776.0
                        ]
                    },
                    "seed": 11,
                    "traces": []
                },
                {
                    "method calls": [
                        {
                            "count": 1,
                            "name": "com.tekinarslan.sample.SampleActivity.java:SampleActivity$onCreate"
                        },
                        {
                            "count": 1,
                            "name": "com.tekinarslan.sample.SampleActivity.java:SampleActivity$openPdfWithFragment"
                        },
                        {
                            "count": 1,
                            "name": "com.tekinarslan.sample.PdfFragment.java:PdfFragment$PdfFragment"
                        },
                        {
                            "count": 1,
                            "name": "com.tekinarslan.sample.PdfFragment.java:PdfFragment$onCreateView"
                        },
                        {
                            "count": 1,
                            "name": "com.tekinarslan.sample.PdfFragment.java:PdfFragment$openFile"
                        },
                        {
                            "count": 1,
                            "name": "com.artifex.mupdfdemo.MuPDFCore.java:MuPDFCore$MuPDFCore"
                        },
                        {
                            "count": 1,
                            "name": "com.artifex.mupdfdemo.SearchTask.java:SearchTask$SearchTask"
                        },
                        {
                            "count": 1,
                            "name": "com.tekinarslan.sample.SampleActivity.java:SampleActivity$onCreateOptionsMenu"
                        },
                        {
                            "count": 1,
                            "name": "com.tekinarslan.sample.PdfFragment.java:PdfFragment$onPause"
                        },
                        {
                            "count": 1,
                            "name": "com.artifex.mupdfdemo.SearchTask.java:SearchTask$stop"
                        }
                    ],
                    "monkey stats": {},
                    "original": {
                        "consumption": [
                            27210.46443600002
                        ],
                        "time": [
                            45968.0
                        ]
                    },
                    "refactored": {
                        "consumption": [
                            27583.991075500006
                        ],
                        "time": [
                            46426.0
                        ]
                    },
                    "seed": 12,
                    "traces": []
                },
                {
                    "method calls": [
                        {
                            "count": 1,
                            "name": "com.tekinarslan.sample.SampleActivity.java:SampleActivity$onCreate"
                        },
                        {
                            "count": 1,
                            "name": "com.tekinarslan.sample.SampleActivity.java:SampleActivity$openPdfWithFragment"
                        },
                        {
                            "count": 1,
                            "name": "com.tekinarslan.sample.PdfFragment.java:PdfFragment$PdfFragment"
                        },
                        {
                            "count": 1,
                            "name": "com.tekinarslan.sample.PdfFragment.java:PdfFragment$onCreateView"
                        },
                        {
                            "count": 1,
                            "name": "com.tekinarslan.sample.PdfFragment.java:PdfFragment$openFile"
                        },
                        {
                            "count": 1,
                            "name": "com.artifex.mupdfdemo.MuPDFCore.java:MuPDFCore$MuPDFCore"
                        },
                        {
                            "count": 1,
                            "name": "com.artifex.mupdfdemo.SearchTask.java:SearchTask$SearchTask"
                        },
                        {
                            "count": 1,
                            "name": "com.tekinarslan.sample.SampleActivity.java:SampleActivity$onCreateOptionsMenu"
                        },
                        {
                            "count": 1,
                            "name": "com.tekinarslan.sample.PdfFragment.java:PdfFragment$onPause"
                        },
                        {
                            "count": 1,
                            "name": "com.artifex.mupdfdemo.SearchTask.java:SearchTask$stop"
                        }
                    ],
                    "monkey stats": {},
                    "original": {
                        "consumption": [
                            28316.542287000022
                        ],
                        "time": [
                            50874.0
                        ]
                    },
                    "refactored": {
                        "consumption": [
                            28543.391433500004
                        ],
                        "time": [
                            50881.0
                        ]
                    },
                    "seed": 13,
                    "traces": []
                },
                {
                    "method calls": [
                        {
                            "count": 1,
                            "name": "com.tekinarslan.sample.SampleActivity.java:SampleActivity$onCreate"
                        },
                        {
                            "count": 1,
                            "name": "com.tekinarslan.sample.SampleActivity.java:SampleActivity$openPdfWithFragment"
                        },
                        {
                            "count": 1,
                            "name": "com.tekinarslan.sample.PdfFragment.java:PdfFragment$PdfFragment"
                        },
                        {
                            "count": 1,
                            "name": "com.tekinarslan.sample.PdfFragment.java:PdfFragment$onCreateView"
                        },
                        {
                            "count": 1,
                            "name": "com.tekinarslan.sample.PdfFragment.java:PdfFragment$openFile"
                        },
                        {
                            "count": 1,
                            "name": "com.artifex.mupdfdemo.MuPDFCore.java:MuPDFCore$MuPDFCore"
                        },
                        {
                            "count": 1,
                            "name": "com.artifex.mupdfdemo.SearchTask.java:SearchTask$SearchTask"
                        },
                        {
                            "count": 1,
                            "name": "com.tekinarslan.sample.SampleActivity.java:SampleActivity$onCreateOptionsMenu"
                        },
                        {
                            "count": 1,
                            "name": "com.tekinarslan.sample.PdfFragment.java:PdfFragment$onPause"
                        },
                        {
                            "count": 1,
                            "name": "com.artifex.mupdfdemo.SearchTask.java:SearchTask$stop"
                        }
                    ],
                    "monkey stats": {},
                    "original": {
                        "consumption": [
                            28320.8993315
                        ],
                        "time": [
                            49693.0
                        ]
                    },
                    "refactored": {
                        "consumption": [
                            27892.543893500006
                        ],
                        "time": [
                            50060.0
                        ]
                    },
                    "seed": 14,
                    "traces": []
                },
                {
                    "method calls": [
                        {
                            "count": 1,
                            "name": "com.tekinarslan.sample.SampleActivity.java:SampleActivity$onCreate"
                        },
                        {
                            "count": 1,
                            "name": "com.tekinarslan.sample.SampleActivity.java:SampleActivity$openPdfWithFragment"
                        },
                        {
                            "count": 1,
                            "name": "com.tekinarslan.sample.PdfFragment.java:PdfFragment$PdfFragment"
                        },
                        {
                            "count": 1,
                            "name": "com.tekinarslan.sample.PdfFragment.java:PdfFragment$onCreateView"
                        },
                        {
                            "count": 1,
                            "name": "com.tekinarslan.sample.PdfFragment.java:PdfFragment$openFile"
                        },
                        {
                            "count": 1,
                            "name": "com.artifex.mupdfdemo.MuPDFCore.java:MuPDFCore$MuPDFCore"
                        },
                        {
                            "count": 1,
                            "name": "com.artifex.mupdfdemo.SearchTask.java:SearchTask$SearchTask"
                        },
                        {
                            "count": 1,
                            "name": "com.tekinarslan.sample.SampleActivity.java:SampleActivity$onCreateOptionsMenu"
                        },
                        {
                            "count": 1,
                            "name": "com.tekinarslan.sample.PdfFragment.java:PdfFragment$onPause"
                        },
                        {
                            "count": 1,
                            "name": "com.artifex.mupdfdemo.SearchTask.java:SearchTask$stop"
                        }
                    ],
                    "monkey stats": {},
                    "original": {
                        "consumption": [
                            27456.331913500002
                        ],
                        "time": [
                            46266.0
                        ]
                    },
                    "refactored": {
                        "consumption": [
                            27360.8373635
                        ],
                        "time": [
                            46001.0
                        ]
                    },
                    "seed": 15,
                    "traces": []
                },
                {
                    "method calls": [
                        {
                            "count": 1,
                            "name": "com.tekinarslan.sample.SampleActivity.java:SampleActivity$onCreate"
                        },
                        {
                            "count": 1,
                            "name": "com.tekinarslan.sample.SampleActivity.java:SampleActivity$openPdfWithFragment"
                        },
                        {
                            "count": 1,
                            "name": "com.tekinarslan.sample.PdfFragment.java:PdfFragment$PdfFragment"
                        },
                        {
                            "count": 1,
                            "name": "com.tekinarslan.sample.PdfFragment.java:PdfFragment$onCreateView"
                        },
                        {
                            "count": 1,
                            "name": "com.tekinarslan.sample.PdfFragment.java:PdfFragment$openFile"
                        },
                        {
                            "count": 1,
                            "name": "com.artifex.mupdfdemo.MuPDFCore.java:MuPDFCore$MuPDFCore"
                        },
                        {
                            "count": 1,
                            "name": "com.artifex.mupdfdemo.SearchTask.java:SearchTask$SearchTask"
                        },
                        {
                            "count": 1,
                            "name": "com.tekinarslan.sample.SampleActivity.java:SampleActivity$onCreateOptionsMenu"
                        },
                        {
                            "count": 1,
                            "name": "com.tekinarslan.sample.PdfFragment.java:PdfFragment$onPause"
                        },
                        {
                            "count": 1,
                            "name": "com.artifex.mupdfdemo.SearchTask.java:SearchTask$stop"
                        }
                    ],
                    "monkey stats": {},
                    "original": {
                        "consumption": [
                            29812.8803085
                        ],
                        "time": [
                            54994.0
                        ]
                    },
                    "refactored": {
                        "consumption": [
                            28999.888777500008
                        ],
                        "time": [
                            54290.0
                        ]
                    },
                    "seed": 16,
                    "traces": []
                },
                {
                    "method calls": [
                        {
                            "count": 1,
                            "name": "com.tekinarslan.sample.SampleActivity.java:SampleActivity$onCreate"
                        },
                        {
                            "count": 1,
                            "name": "com.tekinarslan.sample.SampleActivity.java:SampleActivity$openPdfWithFragment"
                        },
                        {
                            "count": 1,
                            "name": "com.tekinarslan.sample.PdfFragment.java:PdfFragment$PdfFragment"
                        },
                        {
                            "count": 1,
                            "name": "com.tekinarslan.sample.PdfFragment.java:PdfFragment$onCreateView"
                        },
                        {
                            "count": 1,
                            "name": "com.tekinarslan.sample.PdfFragment.java:PdfFragment$openFile"
                        },
                        {
                            "count": 1,
                            "name": "com.artifex.mupdfdemo.MuPDFCore.java:MuPDFCore$MuPDFCore"
                        },
                        {
                            "count": 1,
                            "name": "com.artifex.mupdfdemo.SearchTask.java:SearchTask$SearchTask"
                        },
                        {
                            "count": 1,
                            "name": "com.tekinarslan.sample.SampleActivity.java:SampleActivity$onCreateOptionsMenu"
                        },
                        {
                            "count": 1,
                            "name": "com.tekinarslan.sample.PdfFragment.java:PdfFragment$onPause"
                        },
                        {
                            "count": 1,
                            "name": "com.artifex.mupdfdemo.SearchTask.java:SearchTask$stop"
                        }
                    ],
                    "monkey stats": {},
                    "original": {
                        "consumption": [
                            27171.665463500005
                        ],
                        "time": [
                            46566.0
                        ]
                    },
                    "refactored": {
                        "consumption": [
                            27719.590420500015
                        ],
                        "time": [
                            46161.0
                        ]
                    },
                    "seed": 17,
                    "traces": []
                },
                {
                    "method calls": [
                        {
                            "count": 1,
                            "name": "com.tekinarslan.sample.SampleActivity.java:SampleActivity$onCreate"
                        },
                        {
                            "count": 1,
                            "name": "com.tekinarslan.sample.SampleActivity.java:SampleActivity$openPdfWithFragment"
                        },
                        {
                            "count": 1,
                            "name": "com.tekinarslan.sample.PdfFragment.java:PdfFragment$PdfFragment"
                        },
                        {
                            "count": 1,
                            "name": "com.tekinarslan.sample.PdfFragment.java:PdfFragment$onCreateView"
                        },
                        {
                            "count": 1,
                            "name": "com.tekinarslan.sample.PdfFragment.java:PdfFragment$openFile"
                        },
                        {
                            "count": 1,
                            "name": "com.artifex.mupdfdemo.MuPDFCore.java:MuPDFCore$MuPDFCore"
                        },
                        {
                            "count": 1,
                            "name": "com.artifex.mupdfdemo.SearchTask.java:SearchTask$SearchTask"
                        },
                        {
                            "count": 1,
                            "name": "com.tekinarslan.sample.SampleActivity.java:SampleActivity$onCreateOptionsMenu"
                        },
                        {
                            "count": 1,
                            "name": "com.tekinarslan.sample.PdfFragment.java:PdfFragment$onPause"
                        },
                        {
                            "count": 1,
                            "name": "com.artifex.mupdfdemo.SearchTask.java:SearchTask$stop"
                        }
                    ],
                    "monkey stats": {},
                    "original": {
                        "consumption": [
                            28942.67291449999
                        ],
                        "time": [
                            54347.0
                        ]
                    },
                    "refactored": {
                        "consumption": [
                            29277.720205
                        ],
                        "time": [
                            54803.0
                        ]
                    },
                    "seed": 18,
                    "traces": []
                },
                {
                    "method calls": [
                        {
                            "count": 1,
                            "name": "com.tekinarslan.sample.SampleActivity.java:SampleActivity$onCreate"
                        },
                        {
                            "count": 1,
                            "name": "com.tekinarslan.sample.SampleActivity.java:SampleActivity$openPdfWithFragment"
                        },
                        {
                            "count": 1,
                            "name": "com.tekinarslan.sample.PdfFragment.java:PdfFragment$PdfFragment"
                        },
                        {
                            "count": 1,
                            "name": "com.tekinarslan.sample.PdfFragment.java:PdfFragment$onCreateView"
                        },
                        {
                            "count": 1,
                            "name": "com.tekinarslan.sample.PdfFragment.java:PdfFragment$openFile"
                        },
                        {
                            "count": 1,
                            "name": "com.artifex.mupdfdemo.MuPDFCore.java:MuPDFCore$MuPDFCore"
                        },
                        {
                            "count": 1,
                            "name": "com.artifex.mupdfdemo.SearchTask.java:SearchTask$SearchTask"
                        },
                        {
                            "count": 1,
                            "name": "com.tekinarslan.sample.SampleActivity.java:SampleActivity$onCreateOptionsMenu"
                        },
                        {
                            "count": 1,
                            "name": "com.tekinarslan.sample.PdfFragment.java:PdfFragment$onPause"
                        },
                        {
                            "count": 1,
                            "name": "com.artifex.mupdfdemo.SearchTask.java:SearchTask$stop"
                        }
                    ],
                    "monkey stats": {},
                    "original": {
                        "consumption": [
                            28473.024526500016
                        ],
                        "time": [
                            50484.0
                        ]
                    },
                    "refactored": {
                        "consumption": [
                            28322.772905999995
                        ],
                        "time": [
                            50929.0
                        ]
                    },
                    "seed": 19,
                    "traces": []
                },
                {
                    "method calls": [
                        {
                            "count": 1,
                            "name": "com.tekinarslan.sample.SampleActivity.java:SampleActivity$onCreate"
                        },
                        {
                            "count": 1,
                            "name": "com.tekinarslan.sample.SampleActivity.java:SampleActivity$openPdfWithFragment"
                        },
                        {
                            "count": 1,
                            "name": "com.tekinarslan.sample.PdfFragment.java:PdfFragment$PdfFragment"
                        },
                        {
                            "count": 1,
                            "name": "com.tekinarslan.sample.PdfFragment.java:PdfFragment$onCreateView"
                        },
                        {
                            "count": 1,
                            "name": "com.tekinarslan.sample.PdfFragment.java:PdfFragment$openFile"
                        },
                        {
                            "count": 1,
                            "name": "com.artifex.mupdfdemo.MuPDFCore.java:MuPDFCore$MuPDFCore"
                        },
                        {
                            "count": 1,
                            "name": "com.artifex.mupdfdemo.SearchTask.java:SearchTask$SearchTask"
                        },
                        {
                            "count": 1,
                            "name": "com.tekinarslan.sample.SampleActivity.java:SampleActivity$onCreateOptionsMenu"
                        },
                        {
                            "count": 1,
                            "name": "com.tekinarslan.sample.PdfFragment.java:PdfFragment$onPause"
                        },
                        {
                            "count": 1,
                            "name": "com.artifex.mupdfdemo.SearchTask.java:SearchTask$stop"
                        }
                    ],
                    "monkey stats": {},
                    "original": {
                        "consumption": [
                            28325.53415799998
                        ],
                        "time": [
                            50439.0
                        ]
                    },
                    "refactored": {
                        "consumption": [
                            28420.759955999998
                        ],
                        "time": [
                            50780.0
                        ]
                    },
                    "seed": 20,
                    "traces": []
                },
                {
                    "method calls": [
                        {
                            "count": 1,
                            "name": "com.tekinarslan.sample.SampleActivity.java:SampleActivity$onCreate"
                        },
                        {
                            "count": 1,
                            "name": "com.tekinarslan.sample.SampleActivity.java:SampleActivity$openPdfWithFragment"
                        },
                        {
                            "count": 1,
                            "name": "com.tekinarslan.sample.PdfFragment.java:PdfFragment$PdfFragment"
                        },
                        {
                            "count": 1,
                            "name": "com.tekinarslan.sample.PdfFragment.java:PdfFragment$onCreateView"
                        },
                        {
                            "count": 1,
                            "name": "com.tekinarslan.sample.PdfFragment.java:PdfFragment$openFile"
                        },
                        {
                            "count": 1,
                            "name": "com.artifex.mupdfdemo.MuPDFCore.java:MuPDFCore$MuPDFCore"
                        },
                        {
                            "count": 1,
                            "name": "com.artifex.mupdfdemo.SearchTask.java:SearchTask$SearchTask"
                        },
                        {
                            "count": 1,
                            "name": "com.tekinarslan.sample.SampleActivity.java:SampleActivity$onCreateOptionsMenu"
                        },
                        {
                            "count": 1,
                            "name": "com.tekinarslan.sample.PdfFragment.java:PdfFragment$onPause"
                        },
                        {
                            "count": 1,
                            "name": "com.artifex.mupdfdemo.SearchTask.java:SearchTask$stop"
                        }
                    ],
                    "monkey stats": {},
                    "original": {
                        "consumption": [
                            27903.106813499984
                        ],
                        "time": [
                            49282.0
                        ]
                    },
                    "refactored": {
                        "consumption": [
                            28297.882375499983
                        ],
                        "time": [
                            49375.0
                        ]
                    },
                    "seed": 21,
                    "traces": []
                },
                {
                    "method calls": [
                        {
                            "count": 1,
                            "name": "com.tekinarslan.sample.SampleActivity.java:SampleActivity$onCreate"
                        },
                        {
                            "count": 1,
                            "name": "com.tekinarslan.sample.SampleActivity.java:SampleActivity$openPdfWithFragment"
                        },
                        {
                            "count": 1,
                            "name": "com.tekinarslan.sample.PdfFragment.java:PdfFragment$PdfFragment"
                        },
                        {
                            "count": 1,
                            "name": "com.tekinarslan.sample.PdfFragment.java:PdfFragment$onCreateView"
                        },
                        {
                            "count": 1,
                            "name": "com.tekinarslan.sample.PdfFragment.java:PdfFragment$openFile"
                        },
                        {
                            "count": 1,
                            "name": "com.artifex.mupdfdemo.MuPDFCore.java:MuPDFCore$MuPDFCore"
                        },
                        {
                            "count": 1,
                            "name": "com.artifex.mupdfdemo.SearchTask.java:SearchTask$SearchTask"
                        },
                        {
                            "count": 1,
                            "name": "com.tekinarslan.sample.SampleActivity.java:SampleActivity$onCreateOptionsMenu"
                        },
                        {
                            "count": 9,
                            "name": "com.tekinarslan.sample.SampleActivity.java:SampleActivity$onQueryTextChange"
                        },
                        {
                            "count": 1,
                            "name": "com.tekinarslan.sample.PdfFragment.java:PdfFragment$onPause"
                        },
                        {
                            "count": 1,
                            "name": "com.artifex.mupdfdemo.SearchTask.java:SearchTask$stop"
                        }
                    ],
                    "monkey stats": {},
                    "original": {
                        "consumption": [
                            37369.06284450001
                        ],
                        "time": [
                            48914.0
                        ]
                    },
                    "refactored": {
                        "consumption": [
                            36602.19821499998
                        ],
                        "time": [
                            48459.0
                        ]
                    },
                    "seed": 22,
                    "traces": []
                },
                {
                    "method calls": [
                        {
                            "count": 1,
                            "name": "com.tekinarslan.sample.SampleActivity.java:SampleActivity$onCreate"
                        },
                        {
                            "count": 1,
                            "name": "com.tekinarslan.sample.SampleActivity.java:SampleActivity$openPdfWithFragment"
                        },
                        {
                            "count": 1,
                            "name": "com.tekinarslan.sample.PdfFragment.java:PdfFragment$PdfFragment"
                        },
                        {
                            "count": 1,
                            "name": "com.tekinarslan.sample.PdfFragment.java:PdfFragment$onCreateView"
                        },
                        {
                            "count": 1,
                            "name": "com.tekinarslan.sample.PdfFragment.java:PdfFragment$openFile"
                        },
                        {
                            "count": 1,
                            "name": "com.artifex.mupdfdemo.MuPDFCore.java:MuPDFCore$MuPDFCore"
                        },
                        {
                            "count": 1,
                            "name": "com.artifex.mupdfdemo.SearchTask.java:SearchTask$SearchTask"
                        },
                        {
                            "count": 1,
                            "name": "com.tekinarslan.sample.SampleActivity.java:SampleActivity$onCreateOptionsMenu"
                        },
                        {
                            "count": 1,
                            "name": "com.tekinarslan.sample.PdfFragment.java:PdfFragment$onPause"
                        },
                        {
                            "count": 1,
                            "name": "com.artifex.mupdfdemo.SearchTask.java:SearchTask$stop"
                        }
                    ],
                    "monkey stats": {},
                    "original": {
                        "consumption": [
                            28294.851581000017
                        ],
                        "time": [
                            50789.0
                        ]
                    },
                    "refactored": {
                        "consumption": [
                            28650.682659499987
                        ],
                        "time": [
                            50675.0
                        ]
                    },
                    "seed": 23,
                    "traces": []
                },
                {
                    "method calls": [
                        {
                            "count": 1,
                            "name": "com.tekinarslan.sample.SampleActivity.java:SampleActivity$onCreate"
                        },
                        {
                            "count": 1,
                            "name": "com.tekinarslan.sample.SampleActivity.java:SampleActivity$openPdfWithFragment"
                        },
                        {
                            "count": 1,
                            "name": "com.tekinarslan.sample.PdfFragment.java:PdfFragment$PdfFragment"
                        },
                        {
                            "count": 1,
                            "name": "com.tekinarslan.sample.PdfFragment.java:PdfFragment$onCreateView"
                        },
                        {
                            "count": 1,
                            "name": "com.tekinarslan.sample.PdfFragment.java:PdfFragment$openFile"
                        },
                        {
                            "count": 1,
                            "name": "com.artifex.mupdfdemo.MuPDFCore.java:MuPDFCore$MuPDFCore"
                        },
                        {
                            "count": 1,
                            "name": "com.artifex.mupdfdemo.SearchTask.java:SearchTask$SearchTask"
                        },
                        {
                            "count": 1,
                            "name": "com.tekinarslan.sample.SampleActivity.java:SampleActivity$onCreateOptionsMenu"
                        },
                        {
                            "count": 1,
                            "name": "com.tekinarslan.sample.PdfFragment.java:PdfFragment$onPause"
                        },
                        {
                            "count": 1,
                            "name": "com.artifex.mupdfdemo.SearchTask.java:SearchTask$stop"
                        }
                    ],
                    "monkey stats": {},
                    "original": {
                        "consumption": [
                            28828.47166300001
                        ],
                        "time": [
                            51888.0
                        ]
                    },
                    "refactored": {
                        "consumption": [
                            29124.2268095
                        ],
                        "time": [
                            52099.0
                        ]
                    },
                    "seed": 24,
                    "traces": []
                },
                {
                    "method calls": [
                        {
                            "count": 1,
                            "name": "com.tekinarslan.sample.SampleActivity.java:SampleActivity$onCreate"
                        },
                        {
                            "count": 1,
                            "name": "com.tekinarslan.sample.SampleActivity.java:SampleActivity$openPdfWithFragment"
                        },
                        {
                            "count": 1,
                            "name": "com.tekinarslan.sample.PdfFragment.java:PdfFragment$PdfFragment"
                        },
                        {
                            "count": 1,
                            "name": "com.tekinarslan.sample.PdfFragment.java:PdfFragment$onCreateView"
                        },
                        {
                            "count": 1,
                            "name": "com.tekinarslan.sample.PdfFragment.java:PdfFragment$openFile"
                        },
                        {
                            "count": 1,
                            "name": "com.artifex.mupdfdemo.MuPDFCore.java:MuPDFCore$MuPDFCore"
                        },
                        {
                            "count": 1,
                            "name": "com.artifex.mupdfdemo.SearchTask.java:SearchTask$SearchTask"
                        },
                        {
                            "count": 1,
                            "name": "com.tekinarslan.sample.SampleActivity.java:SampleActivity$onCreateOptionsMenu"
                        },
                        {
                            "count": 1,
                            "name": "com.tekinarslan.sample.PdfFragment.java:PdfFragment$onPause"
                        },
                        {
                            "count": 1,
                            "name": "com.artifex.mupdfdemo.SearchTask.java:SearchTask$stop"
                        }
                    ],
                    "monkey stats": {},
                    "original": {
                        "consumption": [
                            28433.860146999985
                        ],
                        "time": [
                            50680.0
                        ]
                    },
                    "refactored": {
                        "consumption": [
                            28322.165108999983
                        ],
                        "time": [
                            50828.0
                        ]
                    },
                    "seed": 25,
                    "traces": []
                }
            ],
            "transformed eBugs": [
                {
                    "count": 1,
                    "name": "HashMapUsage"
                },
                {
                    "count": 4,
                    "name": "MemberIgnoringMethod"
                },
                {
                    "count": 4,
                    "name": "ExcessiveMethodCalls"
                },
                {
                    "count": 2,
                    "name": "DrawAllocation"
                }
            ]
        }
    ],
    "eBugs": [
        "DrawAllocation",
        "ExcessiveMethodCalls",
        "HashMapUsage",
        "MemberIgnoringMethod"
    ],
    "id": 340,
    "status": "ongoing",
    "tag": "DrawAllocation_ExcessiveMethodCalls_HashMapUsage_MemberIgnoringMethod"
}