{
    "apps": [
        {
            "detected eBugs": [
                {
                    "count": 2,
                    "name": "DrawAllocation"
                },
                {
                    "count": 4,
                    "name": "ExcessiveMethodCalls"
                },
                {
                    "count": 1,
                    "name": "Recycle"
                }
            ],
            "errors": [],
            "id": "3ccb1997-515d-4f5d-9e48-c080b2f7f522",
            "tests": [],
            "transformed eBugs": [
                {
                    "count": 2,
                    "name": "ExcessiveMethodCalls"
                }
            ]
        },
        {
            "detected eBugs": [
                {
                    "count": 4,
                    "name": "DrawAllocation"
                },
                {
                    "count": 1,
                    "name": "ExcessiveMethodCalls"
                },
                {
                    "count": 1,
                    "name": "Recycle"
                }
            ],
            "errors": [],
            "id": "22c1e7a6-2a78-4d50-ac56-761ed55b085b",
            "tests": [],
            "transformed eBugs": [
                {
                    "count": 3,
                    "name": "ExcessiveMethodCalls"
                }
            ]
        },
        {
            "detected eBugs": [
                {
                    "count": 3,
                    "name": "DrawAllocation"
                },
                {
                    "count": 5,
                    "name": "ExcessiveMethodCalls"
                },
                {
                    "count": 1,
                    "name": "Recycle"
                }
            ],
            "errors": [],
            "id": "89307769-5727-42f9-902e-49f1c1fa1ff1",
            "tests": [],
            "transformed eBugs": [
                {
                    "count": 5,
                    "name": "ExcessiveMethodCalls"
                },
                {
                    "count": 2,
                    "name": "DrawAllocation"
                }
            ]
        }
    ],
    "eBugs": [
        "DrawAllocation",
        "ExcessiveMethodCalls",
        "Recycle"
    ],
    "id": 81,
    "status": "ongoing",
    "tag": "DrawAllocation_ExcessiveMethodCalls_Recycle"
}