{
    "apps": [
        {
            "detected eBugs": [
                {
                    "count": 1,
                    "name": "DrawAllocation"
                },
                {
                    "count": 2,
                    "name": "Recycle"
                }
            ],
            "errors": [],
            "id": "35b40f76-eb3f-451c-8bcd-c00c916dd31c",
            "tests": [],
            "transformed eBugs": [
                {
                    "count": 1,
                    "name": "DrawAllocation"
                }
            ]
        },
        {
            "detected eBugs": [
                {
                    "count": 4,
                    "name": "DrawAllocation"
                },
                {
                    "count": 1,
                    "name": "Recycle"
                }
            ],
            "errors": [],
            "id": "22c1e7a6-2a78-4d50-ac56-761ed55b085b",
            "tests": [],
            "transformed eBugs": []
        },
        {
            "detected eBugs": [
                {
                    "count": 2,
                    "name": "DrawAllocation"
                },
                {
                    "count": 1,
                    "name": "Recycle"
                }
            ],
            "errors": [],
            "id": "3ccb1997-515d-4f5d-9e48-c080b2f7f522",
            "tests": [],
            "transformed eBugs": []
        },
        {
            "detected eBugs": [
                {
                    "count": 39,
                    "name": "DrawAllocation"
                },
                {
                    "count": 11,
                    "name": "Recycle"
                }
            ],
            "errors": [],
            "id": "01667ef7-71a4-40e8-a33b-81ddde9cb4f5",
            "tests": [],
            "transformed eBugs": [
                {
                    "count": 2,
                    "name": "DrawAllocation"
                }
            ]
        },
        {
            "detected eBugs": [
                {
                    "count": 3,
                    "name": "DrawAllocation"
                },
                {
                    "count": 1,
                    "name": "Recycle"
                }
            ],
            "errors": [],
            "id": "89307769-5727-42f9-902e-49f1c1fa1ff1",
            "tests": [],
            "transformed eBugs": [
                {
                    "count": 2,
                    "name": "DrawAllocation"
                }
            ]
        }
    ],
    "eBugs": [
        "DrawAllocation",
        "Recycle"
    ],
    "id": 12,
    "status": "ongoing",
    "tag": "DrawAllocation_Recycle"
}