{
    "apps": [
        {
            "detected eBugs": [
                {
                    "count": 8,
                    "name": "ExcessiveMethodCalls"
                },
                {
                    "count": 6,
                    "name": "HashMapUsage"
                },
                {
                    "count": 10,
                    "name": "MemberIgnoringMethod"
                },
                {
                    "count": 1,
                    "name": "ViewHolder"
                }
            ],
            "errors": [
                "[EXEC] [refactored]Error while building or installing: \n/home/marco/temp_apps/6eaf9df9-651f-4a5a-a313-938b51b5dbc0/_refactored/latest/discretebar/src/main/java/org/adw/library/widgets/discreteseekbar/DiscreteSeekBar.java:446: error: non-static method onShowBubble() cannot be referenced from a static context\n\t\t\tonShowBubble();\n\t\t\t^\n/home/marco/temp_apps/6eaf9df9-651f-4a5a-a313-938b51b5dbc0/_refactored/latest/discretebar/src/main/java/org/adw/library/widgets/discreteseekbar/DiscreteSeekBar.java:448: error: non-static method onHideBubble() cannot be referenced from a static context\n\t\t\tonHideBubble();\n\t\t\t^\n2 errors\n\nFAILURE: Build failed with an exception.\n\n* What went wrong:\nExecution failed for task ':discretebar:compileReleaseJavaWithJavac'.\n> Compilation failed; see the compiler error output for details.\n\n* Try:\nRun with --stacktrace option to get the stack trace. Run with --info or --debug option to get more log output.\n"
            ],
            "id": "6eaf9df9-651f-4a5a-a313-938b51b5dbc0",
            "tests": [],
            "transformed eBugs": [
                {
                    "count": 9,
                    "name": "ExcessiveMethodCalls"
                },
                {
                    "count": 9,
                    "name": "MemberIgnoringMethod"
                },
                {
                    "count": 1,
                    "name": "ViewHolder"
                },
                {
                    "count": 1,
                    "name": "HashMapUsage"
                }
            ]
        }
    ],
    "eBugs": [
        "ExcessiveMethodCalls",
        "HashMapUsage",
        "MemberIgnoringMethod",
        "ViewHolder"
    ],
    "id": 535,
    "status": "ongoing",
    "tag": "ExcessiveMethodCalls_HashMapUsage_MemberIgnoringMethod_ViewHolder"
}