{
    "apps": [
        {
            "detected eBugs": [
                {
                    "count": 8,
                    "name": "ExcessiveMethodCalls"
                },
                {
                    "count": 6,
                    "name": "HashMapUsage"
                },
                {
                    "count": 4,
                    "name": "ObsoleteLayoutParam"
                },
                {
                    "count": 1,
                    "name": "ViewHolder"
                }
            ],
            "errors": [],
            "id": "6eaf9df9-651f-4a5a-a313-938b51b5dbc0",
            "tests": [
                {
                    "method calls": [
                        {
                            "count": 1,
                            "name": "com.tajchert.hours.ui.ActivityMain.java:ActivityMain$onCreate"
                        },
                        {
                            "count": 1,
                            "name": "com.tajchert.hours.ui.ActivityMain.java:ActivityMain$onShowcaseViewShow"
                        },
                        {
                            "count": 1,
                            "name": "com.tajchert.hours.ui.ActivityMain.java:ActivityMain$onResume"
                        },
                        {
                            "count": 1,
                            "name": "com.tajchert.hours.widgets.WidgetListManager.java:WidgetListManager$getWidgets"
                        },
                        {
                            "count": 1,
                            "name": "com.tajchert.hours.widgets.WidgetListManager.java:WidgetListManager$setToMap"
                        },
                        {
                            "count": 1,
                            "name": "com.tajchert.hours.lists.WidgetListRecyclerAdapter.java:WidgetListRecyclerAdapter$WidgetListRecyclerAdapter"
                        },
                        {
                            "count": 10,
                            "name": "com.tajchert.hours.lists.WidgetListRecyclerAdapter.java:WidgetListRecyclerAdapter$getItemCount"
                        },
                        {
                            "count": 1,
                            "name": "com.tajchert.hours.ui.ActivityMain.java:ActivityMain$onCreateOptionsMenu"
                        },
                        {
                            "count": 1,
                            "name": "com.tajchert.hours.ui.ActivityMain.java:ActivityMain$onShowcaseViewHide"
                        },
                        {
                            "count": 1,
                            "name": "com.tajchert.hours.ui.ActivityMain.java:ActivityMain$showcasePalette"
                        },
                        {
                            "count": 1,
                            "name": "com.tajchert.hours.ui.ActivityMain.java:ActivityMain$onShowcaseViewDidHide"
                        }
                    ],
                    "monkey stats": {},
                    "original": {
                        "consumption": [
                            44464.89785400004
                        ],
                        "time": [
                            45313.0
                        ]
                    },
                    "refactored": {
                        "consumption": [
                            38338.63290749998
                        ],
                        "time": [
                            46568.0
                        ]
                    },
                    "seed": 1,
                    "traces": [
                        {
                            "count": 1,
                            "name": "HashMapUsage"
                        },
                        {
                            "count": 12,
                            "name": "ObsoleteLayoutParam"
                        },
                        {
                            "count": 9,
                            "name": "ExcessiveMethodCalls"
                        },
                        {
                            "count": 1,
                            "name": "ViewHolder"
                        },
                        {
                            "count": 1,
                            "name": "HashMapUsage"
                        }
                    ]
                },
                {
                    "method calls": [
                        {
                            "count": 1,
                            "name": "com.tajchert.hours.ui.ActivityMain.java:ActivityMain$onCreate"
                        },
                        {
                            "count": 1,
                            "name": "com.tajchert.hours.ui.ActivityMain.java:ActivityMain$onShowcaseViewShow"
                        },
                        {
                            "count": 1,
                            "name": "com.tajchert.hours.ui.ActivityMain.java:ActivityMain$onResume"
                        },
                        {
                            "count": 1,
                            "name": "com.tajchert.hours.widgets.WidgetListManager.java:WidgetListManager$getWidgets"
                        },
                        {
                            "count": 1,
                            "name": "com.tajchert.hours.widgets.WidgetListManager.java:WidgetListManager$setToMap"
                        },
                        {
                            "count": 1,
                            "name": "com.tajchert.hours.lists.WidgetListRecyclerAdapter.java:WidgetListRecyclerAdapter$WidgetListRecyclerAdapter"
                        },
                        {
                            "count": 10,
                            "name": "com.tajchert.hours.lists.WidgetListRecyclerAdapter.java:WidgetListRecyclerAdapter$getItemCount"
                        },
                        {
                            "count": 1,
                            "name": "com.tajchert.hours.ui.ActivityMain.java:ActivityMain$onCreateOptionsMenu"
                        },
                        {
                            "count": 1,
                            "name": "com.tajchert.hours.ui.ActivityMain.java:ActivityMain$onShowcaseViewHide"
                        },
                        {
                            "count": 1,
                            "name": "com.tajchert.hours.ui.ActivityMain.java:ActivityMain$showcasePalette"
                        },
                        {
                            "count": 1,
                            "name": "com.tajchert.hours.ui.ActivityMain.java:ActivityMain$onShowcaseViewDidHide"
                        }
                    ],
                    "monkey stats": {},
                    "original": {
                        "consumption": [
                            37509.6955015
                        ],
                        "time": [
                            46167.0
                        ]
                    },
                    "refactored": {
                        "consumption": [
                            36873.0865755
                        ],
                        "time": [
                            46555.0
                        ]
                    },
                    "seed": 2,
                    "traces": [
                        {
                            "count": 1,
                            "name": "HashMapUsage"
                        },
                        {
                            "count": 12,
                            "name": "ObsoleteLayoutParam"
                        },
                        {
                            "count": 9,
                            "name": "ExcessiveMethodCalls"
                        },
                        {
                            "count": 1,
                            "name": "ViewHolder"
                        },
                        {
                            "count": 1,
                            "name": "HashMapUsage"
                        }
                    ]
                },
                {
                    "method calls": [
                        {
                            "count": 1,
                            "name": "com.tajchert.hours.ui.ActivityMain.java:ActivityMain$onCreate"
                        },
                        {
                            "count": 1,
                            "name": "com.tajchert.hours.ui.ActivityMain.java:ActivityMain$onShowcaseViewShow"
                        },
                        {
                            "count": 1,
                            "name": "com.tajchert.hours.ui.ActivityMain.java:ActivityMain$onResume"
                        },
                        {
                            "count": 1,
                            "name": "com.tajchert.hours.widgets.WidgetListManager.java:WidgetListManager$getWidgets"
                        },
                        {
                            "count": 1,
                            "name": "com.tajchert.hours.widgets.WidgetListManager.java:WidgetListManager$setToMap"
                        },
                        {
                            "count": 1,
                            "name": "com.tajchert.hours.lists.WidgetListRecyclerAdapter.java:WidgetListRecyclerAdapter$WidgetListRecyclerAdapter"
                        },
                        {
                            "count": 10,
                            "name": "com.tajchert.hours.lists.WidgetListRecyclerAdapter.java:WidgetListRecyclerAdapter$getItemCount"
                        },
                        {
                            "count": 1,
                            "name": "com.tajchert.hours.ui.ActivityMain.java:ActivityMain$onCreateOptionsMenu"
                        },
                        {
                            "count": 1,
                            "name": "com.tajchert.hours.ui.ActivityMain.java:ActivityMain$onShowcaseViewHide"
                        },
                        {
                            "count": 1,
                            "name": "com.tajchert.hours.ui.ActivityMain.java:ActivityMain$showcasePalette"
                        },
                        {
                            "count": 1,
                            "name": "com.tajchert.hours.ui.ActivityMain.java:ActivityMain$onShowcaseViewDidHide"
                        }
                    ],
                    "monkey stats": {},
                    "original": {
                        "consumption": [
                            39769.348982499985
                        ],
                        "time": [
                            43007.0
                        ]
                    },
                    "refactored": {
                        "consumption": [
                            38928.86420000001
                        ],
                        "time": [
                            42703.0
                        ]
                    },
                    "seed": 3,
                    "traces": [
                        {
                            "count": 1,
                            "name": "HashMapUsage"
                        },
                        {
                            "count": 12,
                            "name": "ObsoleteLayoutParam"
                        },
                        {
                            "count": 9,
                            "name": "ExcessiveMethodCalls"
                        },
                        {
                            "count": 1,
                            "name": "ViewHolder"
                        },
                        {
                            "count": 1,
                            "name": "HashMapUsage"
                        }
                    ]
                },
                {
                    "method calls": [
                        {
                            "count": 1,
                            "name": "com.tajchert.hours.ui.ActivityMain.java:ActivityMain$onCreate"
                        },
                        {
                            "count": 1,
                            "name": "com.tajchert.hours.ui.ActivityMain.java:ActivityMain$onShowcaseViewShow"
                        },
                        {
                            "count": 1,
                            "name": "com.tajchert.hours.ui.ActivityMain.java:ActivityMain$onResume"
                        },
                        {
                            "count": 1,
                            "name": "com.tajchert.hours.widgets.WidgetListManager.java:WidgetListManager$getWidgets"
                        },
                        {
                            "count": 1,
                            "name": "com.tajchert.hours.widgets.WidgetListManager.java:WidgetListManager$setToMap"
                        },
                        {
                            "count": 1,
                            "name": "com.tajchert.hours.lists.WidgetListRecyclerAdapter.java:WidgetListRecyclerAdapter$WidgetListRecyclerAdapter"
                        },
                        {
                            "count": 10,
                            "name": "com.tajchert.hours.lists.WidgetListRecyclerAdapter.java:WidgetListRecyclerAdapter$getItemCount"
                        },
                        {
                            "count": 1,
                            "name": "com.tajchert.hours.ui.ActivityMain.java:ActivityMain$onCreateOptionsMenu"
                        },
                        {
                            "count": 1,
                            "name": "com.tajchert.hours.ui.ActivityMain.java:ActivityMain$onShowcaseViewHide"
                        },
                        {
                            "count": 1,
                            "name": "com.tajchert.hours.ui.ActivityMain.java:ActivityMain$showcasePalette"
                        },
                        {
                            "count": 1,
                            "name": "com.tajchert.hours.ui.ActivityMain.java:ActivityMain$onShowcaseViewDidHide"
                        }
                    ],
                    "monkey stats": {},
                    "original": {
                        "consumption": [
                            37855.78131649997
                        ],
                        "time": [
                            46674.0
                        ]
                    },
                    "refactored": {
                        "consumption": [
                            37589.21370000004
                        ],
                        "time": [
                            46825.0
                        ]
                    },
                    "seed": 4,
                    "traces": [
                        {
                            "count": 1,
                            "name": "HashMapUsage"
                        },
                        {
                            "count": 12,
                            "name": "ObsoleteLayoutParam"
                        },
                        {
                            "count": 9,
                            "name": "ExcessiveMethodCalls"
                        },
                        {
                            "count": 1,
                            "name": "ViewHolder"
                        },
                        {
                            "count": 1,
                            "name": "HashMapUsage"
                        }
                    ]
                },
                {
                    "method calls": [
                        {
                            "count": 1,
                            "name": "com.tajchert.hours.ui.ActivityMain.java:ActivityMain$onCreate"
                        },
                        {
                            "count": 1,
                            "name": "com.tajchert.hours.ui.ActivityMain.java:ActivityMain$onShowcaseViewShow"
                        },
                        {
                            "count": 1,
                            "name": "com.tajchert.hours.ui.ActivityMain.java:ActivityMain$onResume"
                        },
                        {
                            "count": 1,
                            "name": "com.tajchert.hours.widgets.WidgetListManager.java:WidgetListManager$getWidgets"
                        },
                        {
                            "count": 1,
                            "name": "com.tajchert.hours.widgets.WidgetListManager.java:WidgetListManager$setToMap"
                        },
                        {
                            "count": 1,
                            "name": "com.tajchert.hours.lists.WidgetListRecyclerAdapter.java:WidgetListRecyclerAdapter$WidgetListRecyclerAdapter"
                        },
                        {
                            "count": 10,
                            "name": "com.tajchert.hours.lists.WidgetListRecyclerAdapter.java:WidgetListRecyclerAdapter$getItemCount"
                        },
                        {
                            "count": 1,
                            "name": "com.tajchert.hours.ui.ActivityMain.java:ActivityMain$onCreateOptionsMenu"
                        },
                        {
                            "count": 1,
                            "name": "com.tajchert.hours.ui.ActivityMain.java:ActivityMain$onShowcaseViewHide"
                        },
                        {
                            "count": 1,
                            "name": "com.tajchert.hours.ui.ActivityMain.java:ActivityMain$showcasePalette"
                        },
                        {
                            "count": 1,
                            "name": "com.tajchert.hours.ui.ActivityMain.java:ActivityMain$onShowcaseViewDidHide"
                        }
                    ],
                    "monkey stats": {},
                    "original": {
                        "consumption": [
                            38482.91552000002
                        ],
                        "time": [
                            46879.0
                        ]
                    },
                    "refactored": {
                        "consumption": [
                            38864.74985550003
                        ],
                        "time": [
                            46517.0
                        ]
                    },
                    "seed": 5,
                    "traces": [
                        {
                            "count": 1,
                            "name": "HashMapUsage"
                        },
                        {
                            "count": 12,
                            "name": "ObsoleteLayoutParam"
                        },
                        {
                            "count": 9,
                            "name": "ExcessiveMethodCalls"
                        },
                        {
                            "count": 1,
                            "name": "ViewHolder"
                        },
                        {
                            "count": 1,
                            "name": "HashMapUsage"
                        }
                    ]
                },
                {
                    "method calls": [
                        {
                            "count": 1,
                            "name": "com.tajchert.hours.ui.ActivityMain.java:ActivityMain$onCreate"
                        },
                        {
                            "count": 1,
                            "name": "com.tajchert.hours.ui.ActivityMain.java:ActivityMain$onShowcaseViewShow"
                        },
                        {
                            "count": 1,
                            "name": "com.tajchert.hours.ui.ActivityMain.java:ActivityMain$onResume"
                        },
                        {
                            "count": 1,
                            "name": "com.tajchert.hours.widgets.WidgetListManager.java:WidgetListManager$getWidgets"
                        },
                        {
                            "count": 1,
                            "name": "com.tajchert.hours.widgets.WidgetListManager.java:WidgetListManager$setToMap"
                        },
                        {
                            "count": 1,
                            "name": "com.tajchert.hours.lists.WidgetListRecyclerAdapter.java:WidgetListRecyclerAdapter$WidgetListRecyclerAdapter"
                        },
                        {
                            "count": 10,
                            "name": "com.tajchert.hours.lists.WidgetListRecyclerAdapter.java:WidgetListRecyclerAdapter$getItemCount"
                        },
                        {
                            "count": 1,
                            "name": "com.tajchert.hours.ui.ActivityMain.java:ActivityMain$onCreateOptionsMenu"
                        },
                        {
                            "count": 1,
                            "name": "com.tajchert.hours.ui.ActivityMain.java:ActivityMain$onShowcaseViewHide"
                        },
                        {
                            "count": 1,
                            "name": "com.tajchert.hours.ui.ActivityMain.java:ActivityMain$showcasePalette"
                        },
                        {
                            "count": 1,
                            "name": "com.tajchert.hours.ui.ActivityMain.java:ActivityMain$onShowcaseViewDidHide"
                        }
                    ],
                    "monkey stats": {},
                    "original": {
                        "consumption": [
                            29314.166727000014
                        ],
                        "time": [
                            48212.0
                        ]
                    },
                    "refactored": {
                        "consumption": [
                            28955.56925
                        ],
                        "time": [
                            48670.0
                        ]
                    },
                    "seed": 6,
                    "traces": [
                        {
                            "count": 1,
                            "name": "HashMapUsage"
                        },
                        {
                            "count": 12,
                            "name": "ObsoleteLayoutParam"
                        },
                        {
                            "count": 9,
                            "name": "ExcessiveMethodCalls"
                        },
                        {
                            "count": 1,
                            "name": "ViewHolder"
                        },
                        {
                            "count": 1,
                            "name": "HashMapUsage"
                        }
                    ]
                },
                {
                    "method calls": [
                        {
                            "count": 1,
                            "name": "com.tajchert.hours.ui.ActivityMain.java:ActivityMain$onCreate"
                        },
                        {
                            "count": 1,
                            "name": "com.tajchert.hours.ui.ActivityMain.java:ActivityMain$onShowcaseViewShow"
                        },
                        {
                            "count": 1,
                            "name": "com.tajchert.hours.ui.ActivityMain.java:ActivityMain$onResume"
                        },
                        {
                            "count": 1,
                            "name": "com.tajchert.hours.widgets.WidgetListManager.java:WidgetListManager$getWidgets"
                        },
                        {
                            "count": 1,
                            "name": "com.tajchert.hours.widgets.WidgetListManager.java:WidgetListManager$setToMap"
                        },
                        {
                            "count": 1,
                            "name": "com.tajchert.hours.lists.WidgetListRecyclerAdapter.java:WidgetListRecyclerAdapter$WidgetListRecyclerAdapter"
                        },
                        {
                            "count": 10,
                            "name": "com.tajchert.hours.lists.WidgetListRecyclerAdapter.java:WidgetListRecyclerAdapter$getItemCount"
                        },
                        {
                            "count": 1,
                            "name": "com.tajchert.hours.ui.ActivityMain.java:ActivityMain$onCreateOptionsMenu"
                        },
                        {
                            "count": 1,
                            "name": "com.tajchert.hours.ui.ActivityMain.java:ActivityMain$onShowcaseViewHide"
                        },
                        {
                            "count": 1,
                            "name": "com.tajchert.hours.ui.ActivityMain.java:ActivityMain$showcasePalette"
                        },
                        {
                            "count": 1,
                            "name": "com.tajchert.hours.ui.ActivityMain.java:ActivityMain$onShowcaseViewDidHide"
                        }
                    ],
                    "monkey stats": {},
                    "original": {
                        "consumption": [
                            30840.705458499975
                        ],
                        "time": [
                            56095.0
                        ]
                    },
                    "refactored": {
                        "consumption": [
                            39582.7138725
                        ],
                        "time": [
                            52192.0
                        ]
                    },
                    "seed": 7,
                    "traces": [
                        {
                            "count": 1,
                            "name": "HashMapUsage"
                        },
                        {
                            "count": 12,
                            "name": "ObsoleteLayoutParam"
                        },
                        {
                            "count": 9,
                            "name": "ExcessiveMethodCalls"
                        },
                        {
                            "count": 1,
                            "name": "ViewHolder"
                        },
                        {
                            "count": 1,
                            "name": "HashMapUsage"
                        }
                    ]
                },
                {
                    "method calls": [
                        {
                            "count": 1,
                            "name": "com.tajchert.hours.ui.ActivityMain.java:ActivityMain$onCreate"
                        },
                        {
                            "count": 1,
                            "name": "com.tajchert.hours.ui.ActivityMain.java:ActivityMain$onShowcaseViewShow"
                        },
                        {
                            "count": 1,
                            "name": "com.tajchert.hours.ui.ActivityMain.java:ActivityMain$onResume"
                        },
                        {
                            "count": 1,
                            "name": "com.tajchert.hours.widgets.WidgetListManager.java:WidgetListManager$getWidgets"
                        },
                        {
                            "count": 1,
                            "name": "com.tajchert.hours.widgets.WidgetListManager.java:WidgetListManager$setToMap"
                        },
                        {
                            "count": 1,
                            "name": "com.tajchert.hours.lists.WidgetListRecyclerAdapter.java:WidgetListRecyclerAdapter$WidgetListRecyclerAdapter"
                        },
                        {
                            "count": 10,
                            "name": "com.tajchert.hours.lists.WidgetListRecyclerAdapter.java:WidgetListRecyclerAdapter$getItemCount"
                        },
                        {
                            "count": 1,
                            "name": "com.tajchert.hours.ui.ActivityMain.java:ActivityMain$onCreateOptionsMenu"
                        },
                        {
                            "count": 1,
                            "name": "com.tajchert.hours.ui.ActivityMain.java:ActivityMain$onShowcaseViewHide"
                        },
                        {
                            "count": 1,
                            "name": "com.tajchert.hours.ui.ActivityMain.java:ActivityMain$showcasePalette"
                        },
                        {
                            "count": 1,
                            "name": "com.tajchert.hours.ui.ActivityMain.java:ActivityMain$onShowcaseViewDidHide"
                        }
                    ],
                    "monkey stats": {},
                    "original": {
                        "consumption": [
                            30209.998406999963
                        ],
                        "time": [
                            51502.0
                        ]
                    },
                    "refactored": {
                        "consumption": [
                            38725.24184650001
                        ],
                        "time": [
                            47287.0
                        ]
                    },
                    "seed": 8,
                    "traces": [
                        {
                            "count": 1,
                            "name": "HashMapUsage"
                        },
                        {
                            "count": 12,
                            "name": "ObsoleteLayoutParam"
                        },
                        {
                            "count": 9,
                            "name": "ExcessiveMethodCalls"
                        },
                        {
                            "count": 1,
                            "name": "ViewHolder"
                        },
                        {
                            "count": 1,
                            "name": "HashMapUsage"
                        }
                    ]
                },
                {
                    "method calls": [
                        {
                            "count": 1,
                            "name": "com.tajchert.hours.ui.ActivityMain.java:ActivityMain$onCreate"
                        },
                        {
                            "count": 1,
                            "name": "com.tajchert.hours.ui.ActivityMain.java:ActivityMain$onShowcaseViewShow"
                        },
                        {
                            "count": 1,
                            "name": "com.tajchert.hours.ui.ActivityMain.java:ActivityMain$onResume"
                        },
                        {
                            "count": 1,
                            "name": "com.tajchert.hours.widgets.WidgetListManager.java:WidgetListManager$getWidgets"
                        },
                        {
                            "count": 1,
                            "name": "com.tajchert.hours.widgets.WidgetListManager.java:WidgetListManager$setToMap"
                        },
                        {
                            "count": 1,
                            "name": "com.tajchert.hours.lists.WidgetListRecyclerAdapter.java:WidgetListRecyclerAdapter$WidgetListRecyclerAdapter"
                        },
                        {
                            "count": 10,
                            "name": "com.tajchert.hours.lists.WidgetListRecyclerAdapter.java:WidgetListRecyclerAdapter$getItemCount"
                        },
                        {
                            "count": 1,
                            "name": "com.tajchert.hours.ui.ActivityMain.java:ActivityMain$onCreateOptionsMenu"
                        },
                        {
                            "count": 1,
                            "name": "com.tajchert.hours.ui.ActivityMain.java:ActivityMain$onShowcaseViewHide"
                        },
                        {
                            "count": 1,
                            "name": "com.tajchert.hours.ui.ActivityMain.java:ActivityMain$showcasePalette"
                        },
                        {
                            "count": 1,
                            "name": "com.tajchert.hours.ui.ActivityMain.java:ActivityMain$onShowcaseViewDidHide"
                        }
                    ],
                    "monkey stats": {},
                    "original": {
                        "consumption": [
                            28980.87657350002
                        ],
                        "time": [
                            49128.0
                        ]
                    },
                    "refactored": {
                        "consumption": [
                            37462.13336549998
                        ],
                        "time": [
                            45221.0
                        ]
                    },
                    "seed": 9,
                    "traces": [
                        {
                            "count": 1,
                            "name": "HashMapUsage"
                        },
                        {
                            "count": 12,
                            "name": "ObsoleteLayoutParam"
                        },
                        {
                            "count": 9,
                            "name": "ExcessiveMethodCalls"
                        },
                        {
                            "count": 1,
                            "name": "ViewHolder"
                        },
                        {
                            "count": 1,
                            "name": "HashMapUsage"
                        }
                    ]
                },
                {
                    "method calls": [
                        {
                            "count": 1,
                            "name": "com.tajchert.hours.ui.ActivityMain.java:ActivityMain$onCreate"
                        },
                        {
                            "count": 1,
                            "name": "com.tajchert.hours.ui.ActivityMain.java:ActivityMain$onShowcaseViewShow"
                        },
                        {
                            "count": 1,
                            "name": "com.tajchert.hours.ui.ActivityMain.java:ActivityMain$onResume"
                        },
                        {
                            "count": 1,
                            "name": "com.tajchert.hours.widgets.WidgetListManager.java:WidgetListManager$getWidgets"
                        },
                        {
                            "count": 1,
                            "name": "com.tajchert.hours.widgets.WidgetListManager.java:WidgetListManager$setToMap"
                        },
                        {
                            "count": 1,
                            "name": "com.tajchert.hours.lists.WidgetListRecyclerAdapter.java:WidgetListRecyclerAdapter$WidgetListRecyclerAdapter"
                        },
                        {
                            "count": 10,
                            "name": "com.tajchert.hours.lists.WidgetListRecyclerAdapter.java:WidgetListRecyclerAdapter$getItemCount"
                        },
                        {
                            "count": 1,
                            "name": "com.tajchert.hours.ui.ActivityMain.java:ActivityMain$onCreateOptionsMenu"
                        },
                        {
                            "count": 1,
                            "name": "com.tajchert.hours.ui.ActivityMain.java:ActivityMain$onShowcaseViewHide"
                        },
                        {
                            "count": 1,
                            "name": "com.tajchert.hours.ui.ActivityMain.java:ActivityMain$showcasePalette"
                        },
                        {
                            "count": 1,
                            "name": "com.tajchert.hours.ui.ActivityMain.java:ActivityMain$onShowcaseViewDidHide"
                        }
                    ],
                    "monkey stats": {},
                    "original": {
                        "consumption": [
                            33191.22157699998
                        ],
                        "time": [
                            40655.0
                        ]
                    },
                    "refactored": {
                        "consumption": [
                            35425.6040585
                        ],
                        "time": [
                            40178.0
                        ]
                    },
                    "seed": 10,
                    "traces": [
                        {
                            "count": 1,
                            "name": "HashMapUsage"
                        },
                        {
                            "count": 12,
                            "name": "ObsoleteLayoutParam"
                        },
                        {
                            "count": 9,
                            "name": "ExcessiveMethodCalls"
                        },
                        {
                            "count": 1,
                            "name": "ViewHolder"
                        },
                        {
                            "count": 1,
                            "name": "HashMapUsage"
                        }
                    ]
                },
                {
                    "method calls": [
                        {
                            "count": 1,
                            "name": "com.tajchert.hours.ui.ActivityMain.java:ActivityMain$onCreate"
                        },
                        {
                            "count": 1,
                            "name": "com.tajchert.hours.ui.ActivityMain.java:ActivityMain$onShowcaseViewShow"
                        },
                        {
                            "count": 1,
                            "name": "com.tajchert.hours.ui.ActivityMain.java:ActivityMain$onResume"
                        },
                        {
                            "count": 1,
                            "name": "com.tajchert.hours.widgets.WidgetListManager.java:WidgetListManager$getWidgets"
                        },
                        {
                            "count": 1,
                            "name": "com.tajchert.hours.widgets.WidgetListManager.java:WidgetListManager$setToMap"
                        },
                        {
                            "count": 1,
                            "name": "com.tajchert.hours.lists.WidgetListRecyclerAdapter.java:WidgetListRecyclerAdapter$WidgetListRecyclerAdapter"
                        },
                        {
                            "count": 10,
                            "name": "com.tajchert.hours.lists.WidgetListRecyclerAdapter.java:WidgetListRecyclerAdapter$getItemCount"
                        },
                        {
                            "count": 1,
                            "name": "com.tajchert.hours.ui.ActivityMain.java:ActivityMain$onCreateOptionsMenu"
                        },
                        {
                            "count": 1,
                            "name": "com.tajchert.hours.ui.ActivityMain.java:ActivityMain$onShowcaseViewHide"
                        },
                        {
                            "count": 1,
                            "name": "com.tajchert.hours.ui.ActivityMain.java:ActivityMain$showcasePalette"
                        },
                        {
                            "count": 1,
                            "name": "com.tajchert.hours.ui.ActivityMain.java:ActivityMain$onShowcaseViewDidHide"
                        }
                    ],
                    "monkey stats": {},
                    "original": {
                        "consumption": [
                            36944.40730600001
                        ],
                        "time": [
                            42899.0
                        ]
                    },
                    "refactored": {
                        "consumption": [
                            36885.641563499994
                        ],
                        "time": [
                            42701.0
                        ]
                    },
                    "seed": 11,
                    "traces": [
                        {
                            "count": 1,
                            "name": "HashMapUsage"
                        },
                        {
                            "count": 12,
                            "name": "ObsoleteLayoutParam"
                        },
                        {
                            "count": 9,
                            "name": "ExcessiveMethodCalls"
                        },
                        {
                            "count": 1,
                            "name": "ViewHolder"
                        },
                        {
                            "count": 1,
                            "name": "HashMapUsage"
                        }
                    ]
                },
                {
                    "method calls": [
                        {
                            "count": 1,
                            "name": "com.tajchert.hours.ui.ActivityMain.java:ActivityMain$onCreate"
                        },
                        {
                            "count": 1,
                            "name": "com.tajchert.hours.ui.ActivityMain.java:ActivityMain$onShowcaseViewShow"
                        },
                        {
                            "count": 1,
                            "name": "com.tajchert.hours.ui.ActivityMain.java:ActivityMain$onResume"
                        },
                        {
                            "count": 1,
                            "name": "com.tajchert.hours.widgets.WidgetListManager.java:WidgetListManager$getWidgets"
                        },
                        {
                            "count": 1,
                            "name": "com.tajchert.hours.widgets.WidgetListManager.java:WidgetListManager$setToMap"
                        },
                        {
                            "count": 1,
                            "name": "com.tajchert.hours.lists.WidgetListRecyclerAdapter.java:WidgetListRecyclerAdapter$WidgetListRecyclerAdapter"
                        },
                        {
                            "count": 10,
                            "name": "com.tajchert.hours.lists.WidgetListRecyclerAdapter.java:WidgetListRecyclerAdapter$getItemCount"
                        },
                        {
                            "count": 1,
                            "name": "com.tajchert.hours.ui.ActivityMain.java:ActivityMain$onCreateOptionsMenu"
                        },
                        {
                            "count": 1,
                            "name": "com.tajchert.hours.ui.ActivityMain.java:ActivityMain$onShowcaseViewHide"
                        },
                        {
                            "count": 1,
                            "name": "com.tajchert.hours.ui.ActivityMain.java:ActivityMain$showcasePalette"
                        },
                        {
                            "count": 1,
                            "name": "com.tajchert.hours.ui.ActivityMain.java:ActivityMain$onShowcaseViewDidHide"
                        }
                    ],
                    "monkey stats": {},
                    "original": {
                        "consumption": [
                            27189.773925500016
                        ],
                        "time": [
                            46167.0
                        ]
                    },
                    "refactored": {
                        "consumption": [
                            34628.13601649999
                        ],
                        "time": [
                            41405.0
                        ]
                    },
                    "seed": 12,
                    "traces": [
                        {
                            "count": 1,
                            "name": "HashMapUsage"
                        },
                        {
                            "count": 12,
                            "name": "ObsoleteLayoutParam"
                        },
                        {
                            "count": 9,
                            "name": "ExcessiveMethodCalls"
                        },
                        {
                            "count": 1,
                            "name": "ViewHolder"
                        },
                        {
                            "count": 1,
                            "name": "HashMapUsage"
                        }
                    ]
                },
                {
                    "method calls": [
                        {
                            "count": 1,
                            "name": "com.tajchert.hours.ui.ActivityMain.java:ActivityMain$onCreate"
                        },
                        {
                            "count": 1,
                            "name": "com.tajchert.hours.ui.ActivityMain.java:ActivityMain$onShowcaseViewShow"
                        },
                        {
                            "count": 1,
                            "name": "com.tajchert.hours.ui.ActivityMain.java:ActivityMain$onResume"
                        },
                        {
                            "count": 1,
                            "name": "com.tajchert.hours.widgets.WidgetListManager.java:WidgetListManager$getWidgets"
                        },
                        {
                            "count": 1,
                            "name": "com.tajchert.hours.widgets.WidgetListManager.java:WidgetListManager$setToMap"
                        },
                        {
                            "count": 1,
                            "name": "com.tajchert.hours.lists.WidgetListRecyclerAdapter.java:WidgetListRecyclerAdapter$WidgetListRecyclerAdapter"
                        },
                        {
                            "count": 10,
                            "name": "com.tajchert.hours.lists.WidgetListRecyclerAdapter.java:WidgetListRecyclerAdapter$getItemCount"
                        },
                        {
                            "count": 1,
                            "name": "com.tajchert.hours.ui.ActivityMain.java:ActivityMain$onCreateOptionsMenu"
                        },
                        {
                            "count": 1,
                            "name": "com.tajchert.hours.ui.ActivityMain.java:ActivityMain$onShowcaseViewHide"
                        },
                        {
                            "count": 1,
                            "name": "com.tajchert.hours.ui.ActivityMain.java:ActivityMain$showcasePalette"
                        },
                        {
                            "count": 1,
                            "name": "com.tajchert.hours.ui.ActivityMain.java:ActivityMain$onShowcaseViewDidHide"
                        }
                    ],
                    "monkey stats": {},
                    "original": {
                        "consumption": [
                            38802.36924899999
                        ],
                        "time": [
                            46421.0
                        ]
                    },
                    "refactored": {
                        "consumption": [
                            39349.42460400001
                        ],
                        "time": [
                            46919.0
                        ]
                    },
                    "seed": 13,
                    "traces": [
                        {
                            "count": 1,
                            "name": "HashMapUsage"
                        },
                        {
                            "count": 12,
                            "name": "ObsoleteLayoutParam"
                        },
                        {
                            "count": 9,
                            "name": "ExcessiveMethodCalls"
                        },
                        {
                            "count": 1,
                            "name": "ViewHolder"
                        },
                        {
                            "count": 1,
                            "name": "HashMapUsage"
                        }
                    ]
                },
                {
                    "method calls": [
                        {
                            "count": 1,
                            "name": "com.tajchert.hours.ui.ActivityMain.java:ActivityMain$onCreate"
                        },
                        {
                            "count": 1,
                            "name": "com.tajchert.hours.ui.ActivityMain.java:ActivityMain$onShowcaseViewShow"
                        },
                        {
                            "count": 1,
                            "name": "com.tajchert.hours.ui.ActivityMain.java:ActivityMain$onResume"
                        },
                        {
                            "count": 1,
                            "name": "com.tajchert.hours.widgets.WidgetListManager.java:WidgetListManager$getWidgets"
                        },
                        {
                            "count": 1,
                            "name": "com.tajchert.hours.widgets.WidgetListManager.java:WidgetListManager$setToMap"
                        },
                        {
                            "count": 1,
                            "name": "com.tajchert.hours.lists.WidgetListRecyclerAdapter.java:WidgetListRecyclerAdapter$WidgetListRecyclerAdapter"
                        },
                        {
                            "count": 10,
                            "name": "com.tajchert.hours.lists.WidgetListRecyclerAdapter.java:WidgetListRecyclerAdapter$getItemCount"
                        },
                        {
                            "count": 1,
                            "name": "com.tajchert.hours.ui.ActivityMain.java:ActivityMain$onCreateOptionsMenu"
                        },
                        {
                            "count": 1,
                            "name": "com.tajchert.hours.ui.ActivityMain.java:ActivityMain$onShowcaseViewHide"
                        },
                        {
                            "count": 1,
                            "name": "com.tajchert.hours.ui.ActivityMain.java:ActivityMain$showcasePalette"
                        },
                        {
                            "count": 1,
                            "name": "com.tajchert.hours.ui.ActivityMain.java:ActivityMain$onShowcaseViewDidHide"
                        }
                    ],
                    "monkey stats": {},
                    "original": {
                        "consumption": [
                            30089.03847050001
                        ],
                        "time": [
                            50339.0
                        ]
                    },
                    "refactored": {
                        "consumption": [
                            37947.169166000014
                        ],
                        "time": [
                            46014.0
                        ]
                    },
                    "seed": 14,
                    "traces": [
                        {
                            "count": 1,
                            "name": "HashMapUsage"
                        },
                        {
                            "count": 12,
                            "name": "ObsoleteLayoutParam"
                        },
                        {
                            "count": 9,
                            "name": "ExcessiveMethodCalls"
                        },
                        {
                            "count": 1,
                            "name": "ViewHolder"
                        },
                        {
                            "count": 1,
                            "name": "HashMapUsage"
                        }
                    ]
                },
                {
                    "method calls": [
                        {
                            "count": 1,
                            "name": "com.tajchert.hours.ui.ActivityMain.java:ActivityMain$onCreate"
                        },
                        {
                            "count": 1,
                            "name": "com.tajchert.hours.ui.ActivityMain.java:ActivityMain$onShowcaseViewShow"
                        },
                        {
                            "count": 1,
                            "name": "com.tajchert.hours.ui.ActivityMain.java:ActivityMain$onResume"
                        },
                        {
                            "count": 1,
                            "name": "com.tajchert.hours.widgets.WidgetListManager.java:WidgetListManager$getWidgets"
                        },
                        {
                            "count": 1,
                            "name": "com.tajchert.hours.widgets.WidgetListManager.java:WidgetListManager$setToMap"
                        },
                        {
                            "count": 1,
                            "name": "com.tajchert.hours.lists.WidgetListRecyclerAdapter.java:WidgetListRecyclerAdapter$WidgetListRecyclerAdapter"
                        },
                        {
                            "count": 10,
                            "name": "com.tajchert.hours.lists.WidgetListRecyclerAdapter.java:WidgetListRecyclerAdapter$getItemCount"
                        },
                        {
                            "count": 1,
                            "name": "com.tajchert.hours.ui.ActivityMain.java:ActivityMain$onCreateOptionsMenu"
                        },
                        {
                            "count": 1,
                            "name": "com.tajchert.hours.ui.ActivityMain.java:ActivityMain$onShowcaseViewHide"
                        },
                        {
                            "count": 1,
                            "name": "com.tajchert.hours.ui.ActivityMain.java:ActivityMain$showcasePalette"
                        },
                        {
                            "count": 1,
                            "name": "com.tajchert.hours.ui.ActivityMain.java:ActivityMain$onShowcaseViewDidHide"
                        }
                    ],
                    "monkey stats": {},
                    "original": {
                        "consumption": [
                            28317.92363050002
                        ],
                        "time": [
                            46191.0
                        ]
                    },
                    "refactored": {
                        "consumption": [
                            28239.426919
                        ],
                        "time": [
                            45975.0
                        ]
                    },
                    "seed": 15,
                    "traces": [
                        {
                            "count": 1,
                            "name": "HashMapUsage"
                        },
                        {
                            "count": 12,
                            "name": "ObsoleteLayoutParam"
                        },
                        {
                            "count": 9,
                            "name": "ExcessiveMethodCalls"
                        },
                        {
                            "count": 1,
                            "name": "ViewHolder"
                        },
                        {
                            "count": 1,
                            "name": "HashMapUsage"
                        }
                    ]
                },
                {
                    "method calls": [
                        {
                            "count": 1,
                            "name": "com.tajchert.hours.ui.ActivityMain.java:ActivityMain$onCreate"
                        },
                        {
                            "count": 1,
                            "name": "com.tajchert.hours.ui.ActivityMain.java:ActivityMain$onShowcaseViewShow"
                        },
                        {
                            "count": 1,
                            "name": "com.tajchert.hours.ui.ActivityMain.java:ActivityMain$onResume"
                        },
                        {
                            "count": 1,
                            "name": "com.tajchert.hours.widgets.WidgetListManager.java:WidgetListManager$getWidgets"
                        },
                        {
                            "count": 1,
                            "name": "com.tajchert.hours.widgets.WidgetListManager.java:WidgetListManager$setToMap"
                        },
                        {
                            "count": 1,
                            "name": "com.tajchert.hours.lists.WidgetListRecyclerAdapter.java:WidgetListRecyclerAdapter$WidgetListRecyclerAdapter"
                        },
                        {
                            "count": 10,
                            "name": "com.tajchert.hours.lists.WidgetListRecyclerAdapter.java:WidgetListRecyclerAdapter$getItemCount"
                        },
                        {
                            "count": 1,
                            "name": "com.tajchert.hours.ui.ActivityMain.java:ActivityMain$onCreateOptionsMenu"
                        },
                        {
                            "count": 1,
                            "name": "com.tajchert.hours.ui.ActivityMain.java:ActivityMain$onShowcaseViewHide"
                        },
                        {
                            "count": 1,
                            "name": "com.tajchert.hours.ui.ActivityMain.java:ActivityMain$showcasePalette"
                        },
                        {
                            "count": 1,
                            "name": "com.tajchert.hours.ui.ActivityMain.java:ActivityMain$onShowcaseViewDidHide"
                        }
                    ],
                    "monkey stats": {},
                    "original": {
                        "consumption": [
                            37000.84616300001
                        ],
                        "time": [
                            50272.0
                        ]
                    },
                    "refactored": {
                        "consumption": [
                            37928.69016899997
                        ],
                        "time": [
                            50341.0
                        ]
                    },
                    "seed": 16,
                    "traces": [
                        {
                            "count": 1,
                            "name": "HashMapUsage"
                        },
                        {
                            "count": 12,
                            "name": "ObsoleteLayoutParam"
                        },
                        {
                            "count": 9,
                            "name": "ExcessiveMethodCalls"
                        },
                        {
                            "count": 1,
                            "name": "ViewHolder"
                        },
                        {
                            "count": 1,
                            "name": "HashMapUsage"
                        }
                    ]
                },
                {
                    "method calls": [
                        {
                            "count": 1,
                            "name": "com.tajchert.hours.ui.ActivityMain.java:ActivityMain$onCreate"
                        },
                        {
                            "count": 1,
                            "name": "com.tajchert.hours.ui.ActivityMain.java:ActivityMain$onShowcaseViewShow"
                        },
                        {
                            "count": 1,
                            "name": "com.tajchert.hours.ui.ActivityMain.java:ActivityMain$onResume"
                        },
                        {
                            "count": 1,
                            "name": "com.tajchert.hours.widgets.WidgetListManager.java:WidgetListManager$getWidgets"
                        },
                        {
                            "count": 1,
                            "name": "com.tajchert.hours.widgets.WidgetListManager.java:WidgetListManager$setToMap"
                        },
                        {
                            "count": 1,
                            "name": "com.tajchert.hours.lists.WidgetListRecyclerAdapter.java:WidgetListRecyclerAdapter$WidgetListRecyclerAdapter"
                        },
                        {
                            "count": 10,
                            "name": "com.tajchert.hours.lists.WidgetListRecyclerAdapter.java:WidgetListRecyclerAdapter$getItemCount"
                        },
                        {
                            "count": 1,
                            "name": "com.tajchert.hours.ui.ActivityMain.java:ActivityMain$onCreateOptionsMenu"
                        },
                        {
                            "count": 1,
                            "name": "com.tajchert.hours.ui.ActivityMain.java:ActivityMain$onShowcaseViewHide"
                        },
                        {
                            "count": 1,
                            "name": "com.tajchert.hours.ui.ActivityMain.java:ActivityMain$showcasePalette"
                        },
                        {
                            "count": 1,
                            "name": "com.tajchert.hours.ui.ActivityMain.java:ActivityMain$onShowcaseViewDidHide"
                        }
                    ],
                    "monkey stats": {},
                    "original": {
                        "consumption": [
                            35439.46672299997
                        ],
                        "time": [
                            41989.0
                        ]
                    },
                    "refactored": {
                        "consumption": [
                            36104.24799349998
                        ],
                        "time": [
                            42496.0
                        ]
                    },
                    "seed": 17,
                    "traces": [
                        {
                            "count": 1,
                            "name": "HashMapUsage"
                        },
                        {
                            "count": 12,
                            "name": "ObsoleteLayoutParam"
                        },
                        {
                            "count": 9,
                            "name": "ExcessiveMethodCalls"
                        },
                        {
                            "count": 1,
                            "name": "ViewHolder"
                        },
                        {
                            "count": 1,
                            "name": "HashMapUsage"
                        }
                    ]
                },
                {
                    "method calls": [
                        {
                            "count": 1,
                            "name": "com.tajchert.hours.ui.ActivityMain.java:ActivityMain$onCreate"
                        },
                        {
                            "count": 1,
                            "name": "com.tajchert.hours.ui.ActivityMain.java:ActivityMain$onShowcaseViewShow"
                        },
                        {
                            "count": 1,
                            "name": "com.tajchert.hours.ui.ActivityMain.java:ActivityMain$onResume"
                        },
                        {
                            "count": 1,
                            "name": "com.tajchert.hours.widgets.WidgetListManager.java:WidgetListManager$getWidgets"
                        },
                        {
                            "count": 1,
                            "name": "com.tajchert.hours.widgets.WidgetListManager.java:WidgetListManager$setToMap"
                        },
                        {
                            "count": 1,
                            "name": "com.tajchert.hours.lists.WidgetListRecyclerAdapter.java:WidgetListRecyclerAdapter$WidgetListRecyclerAdapter"
                        },
                        {
                            "count": 10,
                            "name": "com.tajchert.hours.lists.WidgetListRecyclerAdapter.java:WidgetListRecyclerAdapter$getItemCount"
                        },
                        {
                            "count": 1,
                            "name": "com.tajchert.hours.ui.ActivityMain.java:ActivityMain$onCreateOptionsMenu"
                        },
                        {
                            "count": 1,
                            "name": "com.tajchert.hours.ui.ActivityMain.java:ActivityMain$onShowcaseViewHide"
                        },
                        {
                            "count": 1,
                            "name": "com.tajchert.hours.ui.ActivityMain.java:ActivityMain$showcasePalette"
                        },
                        {
                            "count": 1,
                            "name": "com.tajchert.hours.ui.ActivityMain.java:ActivityMain$onShowcaseViewDidHide"
                        }
                    ],
                    "monkey stats": {},
                    "original": {
                        "consumption": [
                            40051.88579650001
                        ],
                        "time": [
                            50489.0
                        ]
                    },
                    "refactored": {
                        "consumption": [
                            40476.48240299992
                        ],
                        "time": [
                            50786.0
                        ]
                    },
                    "seed": 18,
                    "traces": [
                        {
                            "count": 1,
                            "name": "HashMapUsage"
                        },
                        {
                            "count": 12,
                            "name": "ObsoleteLayoutParam"
                        },
                        {
                            "count": 9,
                            "name": "ExcessiveMethodCalls"
                        },
                        {
                            "count": 1,
                            "name": "ViewHolder"
                        },
                        {
                            "count": 1,
                            "name": "HashMapUsage"
                        }
                    ]
                },
                {
                    "method calls": [
                        {
                            "count": 1,
                            "name": "com.tajchert.hours.ui.ActivityMain.java:ActivityMain$onCreate"
                        },
                        {
                            "count": 1,
                            "name": "com.tajchert.hours.ui.ActivityMain.java:ActivityMain$onShowcaseViewShow"
                        },
                        {
                            "count": 1,
                            "name": "com.tajchert.hours.ui.ActivityMain.java:ActivityMain$onResume"
                        },
                        {
                            "count": 1,
                            "name": "com.tajchert.hours.widgets.WidgetListManager.java:WidgetListManager$getWidgets"
                        },
                        {
                            "count": 1,
                            "name": "com.tajchert.hours.widgets.WidgetListManager.java:WidgetListManager$setToMap"
                        },
                        {
                            "count": 1,
                            "name": "com.tajchert.hours.lists.WidgetListRecyclerAdapter.java:WidgetListRecyclerAdapter$WidgetListRecyclerAdapter"
                        },
                        {
                            "count": 10,
                            "name": "com.tajchert.hours.lists.WidgetListRecyclerAdapter.java:WidgetListRecyclerAdapter$getItemCount"
                        },
                        {
                            "count": 1,
                            "name": "com.tajchert.hours.ui.ActivityMain.java:ActivityMain$onCreateOptionsMenu"
                        },
                        {
                            "count": 1,
                            "name": "com.tajchert.hours.ui.ActivityMain.java:ActivityMain$onShowcaseViewHide"
                        },
                        {
                            "count": 1,
                            "name": "com.tajchert.hours.ui.ActivityMain.java:ActivityMain$showcasePalette"
                        },
                        {
                            "count": 1,
                            "name": "com.tajchert.hours.ui.ActivityMain.java:ActivityMain$onShowcaseViewDidHide"
                        }
                    ],
                    "monkey stats": {},
                    "original": {
                        "consumption": [
                            38852.90595849996
                        ],
                        "time": [
                            46683.0
                        ]
                    },
                    "refactored": {
                        "consumption": [
                            39248.848038000004
                        ],
                        "time": [
                            46465.0
                        ]
                    },
                    "seed": 19,
                    "traces": [
                        {
                            "count": 1,
                            "name": "HashMapUsage"
                        },
                        {
                            "count": 12,
                            "name": "ObsoleteLayoutParam"
                        },
                        {
                            "count": 9,
                            "name": "ExcessiveMethodCalls"
                        },
                        {
                            "count": 1,
                            "name": "ViewHolder"
                        },
                        {
                            "count": 1,
                            "name": "HashMapUsage"
                        }
                    ]
                },
                {
                    "method calls": [
                        {
                            "count": 1,
                            "name": "com.tajchert.hours.ui.ActivityMain.java:ActivityMain$onCreate"
                        },
                        {
                            "count": 1,
                            "name": "com.tajchert.hours.ui.ActivityMain.java:ActivityMain$onShowcaseViewShow"
                        },
                        {
                            "count": 1,
                            "name": "com.tajchert.hours.ui.ActivityMain.java:ActivityMain$onResume"
                        },
                        {
                            "count": 1,
                            "name": "com.tajchert.hours.widgets.WidgetListManager.java:WidgetListManager$getWidgets"
                        },
                        {
                            "count": 1,
                            "name": "com.tajchert.hours.widgets.WidgetListManager.java:WidgetListManager$setToMap"
                        },
                        {
                            "count": 1,
                            "name": "com.tajchert.hours.lists.WidgetListRecyclerAdapter.java:WidgetListRecyclerAdapter$WidgetListRecyclerAdapter"
                        },
                        {
                            "count": 10,
                            "name": "com.tajchert.hours.lists.WidgetListRecyclerAdapter.java:WidgetListRecyclerAdapter$getItemCount"
                        },
                        {
                            "count": 1,
                            "name": "com.tajchert.hours.ui.ActivityMain.java:ActivityMain$onCreateOptionsMenu"
                        },
                        {
                            "count": 1,
                            "name": "com.tajchert.hours.ui.ActivityMain.java:ActivityMain$onShowcaseViewHide"
                        },
                        {
                            "count": 1,
                            "name": "com.tajchert.hours.ui.ActivityMain.java:ActivityMain$showcasePalette"
                        },
                        {
                            "count": 1,
                            "name": "com.tajchert.hours.ui.ActivityMain.java:ActivityMain$onShowcaseViewDidHide"
                        }
                    ],
                    "monkey stats": {},
                    "original": {
                        "consumption": [
                            30078.267805
                        ],
                        "time": [
                            50402.0
                        ]
                    },
                    "refactored": {
                        "consumption": [
                            38552.6758975
                        ],
                        "time": [
                            46065.0
                        ]
                    },
                    "seed": 20,
                    "traces": [
                        {
                            "count": 1,
                            "name": "HashMapUsage"
                        },
                        {
                            "count": 12,
                            "name": "ObsoleteLayoutParam"
                        },
                        {
                            "count": 9,
                            "name": "ExcessiveMethodCalls"
                        },
                        {
                            "count": 1,
                            "name": "ViewHolder"
                        },
                        {
                            "count": 1,
                            "name": "HashMapUsage"
                        }
                    ]
                },
                {
                    "method calls": [
                        {
                            "count": 1,
                            "name": "com.tajchert.hours.ui.ActivityMain.java:ActivityMain$onCreate"
                        },
                        {
                            "count": 1,
                            "name": "com.tajchert.hours.ui.ActivityMain.java:ActivityMain$onShowcaseViewShow"
                        },
                        {
                            "count": 1,
                            "name": "com.tajchert.hours.ui.ActivityMain.java:ActivityMain$onResume"
                        },
                        {
                            "count": 1,
                            "name": "com.tajchert.hours.widgets.WidgetListManager.java:WidgetListManager$getWidgets"
                        },
                        {
                            "count": 1,
                            "name": "com.tajchert.hours.widgets.WidgetListManager.java:WidgetListManager$setToMap"
                        },
                        {
                            "count": 1,
                            "name": "com.tajchert.hours.lists.WidgetListRecyclerAdapter.java:WidgetListRecyclerAdapter$WidgetListRecyclerAdapter"
                        },
                        {
                            "count": 10,
                            "name": "com.tajchert.hours.lists.WidgetListRecyclerAdapter.java:WidgetListRecyclerAdapter$getItemCount"
                        },
                        {
                            "count": 1,
                            "name": "com.tajchert.hours.ui.ActivityMain.java:ActivityMain$onCreateOptionsMenu"
                        },
                        {
                            "count": 1,
                            "name": "com.tajchert.hours.ui.ActivityMain.java:ActivityMain$onShowcaseViewHide"
                        },
                        {
                            "count": 1,
                            "name": "com.tajchert.hours.ui.ActivityMain.java:ActivityMain$showcasePalette"
                        },
                        {
                            "count": 1,
                            "name": "com.tajchert.hours.ui.ActivityMain.java:ActivityMain$onShowcaseViewDidHide"
                        }
                    ],
                    "monkey stats": {},
                    "original": {
                        "consumption": [
                            38946.918490000004
                        ],
                        "time": [
                            45669.0
                        ]
                    },
                    "refactored": {
                        "consumption": [
                            39492.564414500004
                        ],
                        "time": [
                            45512.0
                        ]
                    },
                    "seed": 21,
                    "traces": [
                        {
                            "count": 1,
                            "name": "HashMapUsage"
                        },
                        {
                            "count": 12,
                            "name": "ObsoleteLayoutParam"
                        },
                        {
                            "count": 9,
                            "name": "ExcessiveMethodCalls"
                        },
                        {
                            "count": 1,
                            "name": "ViewHolder"
                        },
                        {
                            "count": 1,
                            "name": "HashMapUsage"
                        }
                    ]
                },
                {
                    "method calls": [
                        {
                            "count": 1,
                            "name": "com.tajchert.hours.ui.ActivityMain.java:ActivityMain$onCreate"
                        },
                        {
                            "count": 1,
                            "name": "com.tajchert.hours.ui.ActivityMain.java:ActivityMain$onShowcaseViewShow"
                        },
                        {
                            "count": 1,
                            "name": "com.tajchert.hours.ui.ActivityMain.java:ActivityMain$onResume"
                        },
                        {
                            "count": 3,
                            "name": "com.tajchert.hours.widgets.WidgetListManager.java:WidgetListManager$getWidgets"
                        },
                        {
                            "count": 3,
                            "name": "com.tajchert.hours.widgets.WidgetListManager.java:WidgetListManager$setToMap"
                        },
                        {
                            "count": 1,
                            "name": "com.tajchert.hours.lists.WidgetListRecyclerAdapter.java:WidgetListRecyclerAdapter$WidgetListRecyclerAdapter"
                        },
                        {
                            "count": 10,
                            "name": "com.tajchert.hours.lists.WidgetListRecyclerAdapter.java:WidgetListRecyclerAdapter$getItemCount"
                        },
                        {
                            "count": 1,
                            "name": "com.tajchert.hours.ui.ActivityMain.java:ActivityMain$onCreateOptionsMenu"
                        },
                        {
                            "count": 1,
                            "name": "com.tajchert.hours.ui.ActivityMain.java:ActivityMain$onShowcaseViewHide"
                        },
                        {
                            "count": 1,
                            "name": "com.tajchert.hours.ui.ActivityMain.java:ActivityMain$showcasePalette"
                        },
                        {
                            "count": 1,
                            "name": "com.tajchert.hours.ui.ActivityMain.java:ActivityMain$onShowcaseViewDidHide"
                        },
                        {
                            "count": 1,
                            "name": "com.tajchert.hours.ui.ActivityMain.java:ActivityMain$onOptionsItemSelected"
                        },
                        {
                            "count": 1,
                            "name": "com.tajchert.hours.ui.ActivityColorManagment.java:ActivityColorManagment$onCreate"
                        },
                        {
                            "count": 1,
                            "name": "com.tajchert.hours.ui.ActivityColorManagment.java:ActivityColorManagment$setViewElements"
                        },
                        {
                            "count": 1,
                            "name": "com.tajchert.hours.ui.ActivityColorManagment.java:MyPagerAdapter$MyPagerAdapter"
                        },
                        {
                            "count": 397,
                            "name": "com.tajchert.hours.ui.ActivityColorManagment.java:MyPagerAdapter$getCount"
                        },
                        {
                            "count": 4,
                            "name": "com.tajchert.hours.ui.ActivityColorManagment.java:MyPagerAdapter$getItem"
                        },
                        {
                            "count": 4,
                            "name": "com.tajchert.hours.ui.FragmentColorList.java:FragmentColorList$FragmentColorList"
                        },
                        {
                            "count": 4,
                            "name": "com.tajchert.hours.ui.FragmentColorList.java:FragmentColorList$onCreateView"
                        },
                        {
                            "count": 5,
                            "name": "com.tajchert.hours.lists.ColorListAdapter.java:ColorListAdapter$ColorListAdapter"
                        },
                        {
                            "count": 163,
                            "name": "com.tajchert.hours.lists.ColorListAdapter.java:ColorListAdapter$getCount"
                        },
                        {
                            "count": 4,
                            "name": "com.tajchert.hours.ui.FragmentColorList.java:FragmentColorList$onResume"
                        },
                        {
                            "count": 2,
                            "name": "com.tajchert.hours.ColorManager.java:ColorManager$getArray"
                        },
                        {
                            "count": 309,
                            "name": "com.tajchert.hours.lists.ColorListAdapter.java:ColorListAdapter$getView"
                        },
                        {
                            "count": 17,
                            "name": "com.tajchert.hours.lists.ColorListAdapter.java:ColorListAdapter$getItemId"
                        },
                        {
                            "count": 1,
                            "name": "com.tajchert.hours.ui.ActivityColorManagment.java:ActivityColorManagment$onPause"
                        },
                        {
                            "count": 1,
                            "name": "com.tajchert.hours.ui.ActivityColorManagment.java:SaveWidgetData$onPreExecute"
                        },
                        {
                            "count": 1,
                            "name": "com.tajchert.hours.ui.ActivityColorManagment.java:SaveWidgetData$doInBackground"
                        },
                        {
                            "count": 1,
                            "name": "com.tajchert.hours.ui.ActivityColorManagment.java:SaveWidgetData$onPostExecute"
                        },
                        {
                            "count": 1,
                            "name": "com.tajchert.hours.WidgetUpdateService.java:WidgetUpdateService$onStartCommand"
                        }
                    ],
                    "monkey stats": {},
                    "original": {
                        "consumption": [
                            35979.517055
                        ],
                        "time": [
                            46373.0
                        ]
                    },
                    "refactored": {
                        "consumption": [
                            36311.01321800003
                        ],
                        "time": [
                            46523.0
                        ]
                    },
                    "seed": 22,
                    "traces": [
                        {
                            "count": 3,
                            "name": "HashMapUsage"
                        },
                        {
                            "count": 12,
                            "name": "ObsoleteLayoutParam"
                        },
                        {
                            "count": 9,
                            "name": "ExcessiveMethodCalls"
                        },
                        {
                            "count": 1,
                            "name": "ViewHolder"
                        },
                        {
                            "count": 1,
                            "name": "HashMapUsage"
                        }
                    ]
                },
                {
                    "method calls": [
                        {
                            "count": 1,
                            "name": "com.tajchert.hours.ui.ActivityMain.java:ActivityMain$onCreate"
                        },
                        {
                            "count": 1,
                            "name": "com.tajchert.hours.ui.ActivityMain.java:ActivityMain$onShowcaseViewShow"
                        },
                        {
                            "count": 1,
                            "name": "com.tajchert.hours.ui.ActivityMain.java:ActivityMain$onResume"
                        },
                        {
                            "count": 1,
                            "name": "com.tajchert.hours.widgets.WidgetListManager.java:WidgetListManager$getWidgets"
                        },
                        {
                            "count": 1,
                            "name": "com.tajchert.hours.widgets.WidgetListManager.java:WidgetListManager$setToMap"
                        },
                        {
                            "count": 1,
                            "name": "com.tajchert.hours.lists.WidgetListRecyclerAdapter.java:WidgetListRecyclerAdapter$WidgetListRecyclerAdapter"
                        },
                        {
                            "count": 10,
                            "name": "com.tajchert.hours.lists.WidgetListRecyclerAdapter.java:WidgetListRecyclerAdapter$getItemCount"
                        },
                        {
                            "count": 1,
                            "name": "com.tajchert.hours.ui.ActivityMain.java:ActivityMain$onCreateOptionsMenu"
                        },
                        {
                            "count": 1,
                            "name": "com.tajchert.hours.ui.ActivityMain.java:ActivityMain$onShowcaseViewHide"
                        },
                        {
                            "count": 1,
                            "name": "com.tajchert.hours.ui.ActivityMain.java:ActivityMain$showcasePalette"
                        },
                        {
                            "count": 1,
                            "name": "com.tajchert.hours.ui.ActivityMain.java:ActivityMain$onShowcaseViewDidHide"
                        }
                    ],
                    "monkey stats": {},
                    "original": {
                        "consumption": [
                            30707.89995500001
                        ],
                        "time": [
                            50785.0
                        ]
                    },
                    "refactored": {
                        "consumption": [
                            30901.248667500004
                        ],
                        "time": [
                            50692.0
                        ]
                    },
                    "seed": 23,
                    "traces": [
                        {
                            "count": 1,
                            "name": "HashMapUsage"
                        },
                        {
                            "count": 12,
                            "name": "ObsoleteLayoutParam"
                        },
                        {
                            "count": 9,
                            "name": "ExcessiveMethodCalls"
                        },
                        {
                            "count": 1,
                            "name": "ViewHolder"
                        },
                        {
                            "count": 1,
                            "name": "HashMapUsage"
                        }
                    ]
                },
                {
                    "method calls": [
                        {
                            "count": 1,
                            "name": "com.tajchert.hours.ui.ActivityMain.java:ActivityMain$onCreate"
                        },
                        {
                            "count": 1,
                            "name": "com.tajchert.hours.ui.ActivityMain.java:ActivityMain$onShowcaseViewShow"
                        },
                        {
                            "count": 1,
                            "name": "com.tajchert.hours.ui.ActivityMain.java:ActivityMain$onResume"
                        },
                        {
                            "count": 1,
                            "name": "com.tajchert.hours.widgets.WidgetListManager.java:WidgetListManager$getWidgets"
                        },
                        {
                            "count": 1,
                            "name": "com.tajchert.hours.widgets.WidgetListManager.java:WidgetListManager$setToMap"
                        },
                        {
                            "count": 1,
                            "name": "com.tajchert.hours.lists.WidgetListRecyclerAdapter.java:WidgetListRecyclerAdapter$WidgetListRecyclerAdapter"
                        },
                        {
                            "count": 10,
                            "name": "com.tajchert.hours.lists.WidgetListRecyclerAdapter.java:WidgetListRecyclerAdapter$getItemCount"
                        },
                        {
                            "count": 1,
                            "name": "com.tajchert.hours.ui.ActivityMain.java:ActivityMain$onCreateOptionsMenu"
                        },
                        {
                            "count": 1,
                            "name": "com.tajchert.hours.ui.ActivityMain.java:ActivityMain$onShowcaseViewHide"
                        },
                        {
                            "count": 1,
                            "name": "com.tajchert.hours.ui.ActivityMain.java:ActivityMain$showcasePalette"
                        },
                        {
                            "count": 1,
                            "name": "com.tajchert.hours.ui.ActivityMain.java:ActivityMain$onShowcaseViewDidHide"
                        }
                    ],
                    "monkey stats": {},
                    "original": {
                        "consumption": [
                            29943.72348
                        ],
                        "time": [
                            51900.0
                        ]
                    },
                    "refactored": {
                        "consumption": [
                            38532.467811499955
                        ],
                        "time": [
                            47673.0
                        ]
                    },
                    "seed": 24,
                    "traces": [
                        {
                            "count": 1,
                            "name": "HashMapUsage"
                        },
                        {
                            "count": 12,
                            "name": "ObsoleteLayoutParam"
                        },
                        {
                            "count": 9,
                            "name": "ExcessiveMethodCalls"
                        },
                        {
                            "count": 1,
                            "name": "ViewHolder"
                        },
                        {
                            "count": 1,
                            "name": "HashMapUsage"
                        }
                    ]
                },
                {
                    "method calls": [
                        {
                            "count": 1,
                            "name": "com.tajchert.hours.ui.ActivityMain.java:ActivityMain$onCreate"
                        },
                        {
                            "count": 1,
                            "name": "com.tajchert.hours.ui.ActivityMain.java:ActivityMain$onShowcaseViewShow"
                        },
                        {
                            "count": 1,
                            "name": "com.tajchert.hours.ui.ActivityMain.java:ActivityMain$onResume"
                        },
                        {
                            "count": 1,
                            "name": "com.tajchert.hours.widgets.WidgetListManager.java:WidgetListManager$getWidgets"
                        },
                        {
                            "count": 1,
                            "name": "com.tajchert.hours.widgets.WidgetListManager.java:WidgetListManager$setToMap"
                        },
                        {
                            "count": 1,
                            "name": "com.tajchert.hours.lists.WidgetListRecyclerAdapter.java:WidgetListRecyclerAdapter$WidgetListRecyclerAdapter"
                        },
                        {
                            "count": 10,
                            "name": "com.tajchert.hours.lists.WidgetListRecyclerAdapter.java:WidgetListRecyclerAdapter$getItemCount"
                        },
                        {
                            "count": 1,
                            "name": "com.tajchert.hours.ui.ActivityMain.java:ActivityMain$onCreateOptionsMenu"
                        },
                        {
                            "count": 1,
                            "name": "com.tajchert.hours.ui.ActivityMain.java:ActivityMain$onShowcaseViewHide"
                        },
                        {
                            "count": 1,
                            "name": "com.tajchert.hours.ui.ActivityMain.java:ActivityMain$showcasePalette"
                        },
                        {
                            "count": 1,
                            "name": "com.tajchert.hours.ui.ActivityMain.java:ActivityMain$onShowcaseViewDidHide"
                        }
                    ],
                    "monkey stats": {},
                    "original": {
                        "consumption": [
                            36479.39208200001
                        ],
                        "time": [
                            46817.0
                        ]
                    },
                    "refactored": {
                        "consumption": [
                            37246.2497545
                        ],
                        "time": [
                            46566.0
                        ]
                    },
                    "seed": 25,
                    "traces": [
                        {
                            "count": 1,
                            "name": "HashMapUsage"
                        },
                        {
                            "count": 12,
                            "name": "ObsoleteLayoutParam"
                        },
                        {
                            "count": 9,
                            "name": "ExcessiveMethodCalls"
                        },
                        {
                            "count": 1,
                            "name": "ViewHolder"
                        },
                        {
                            "count": 1,
                            "name": "HashMapUsage"
                        }
                    ]
                }
            ],
            "transformed eBugs": [
                {
                    "count": 12,
                    "name": "ObsoleteLayoutParam"
                },
                {
                    "count": 9,
                    "name": "ExcessiveMethodCalls"
                },
                {
                    "count": 1,
                    "name": "ViewHolder"
                },
                {
                    "count": 1,
                    "name": "HashMapUsage"
                }
            ]
        }
    ],
    "eBugs": [
        "ExcessiveMethodCalls",
        "HashMapUsage",
        "ObsoleteLayoutParam",
        "ViewHolder"
    ],
    "id": 494,
    "status": "ongoing",
    "tag": "ExcessiveMethodCalls_HashMapUsage_ObsoleteLayoutParam_ViewHolder"
}