{
    "apps": [
        {
            "detected eBugs": [
                {
                    "count": 17,
                    "name": "ExcessiveMethodCalls"
                },
                {
                    "count": 1,
                    "name": "ObsoleteLayoutParam"
                },
                {
                    "count": 1,
                    "name": "Recycle"
                }
            ],
            "errors": [],
            "id": "d86eda53-2d06-455d-bc16-46b9d83075b7",
            "tests": [],
            "transformed eBugs": [
                {
                    "count": 3,
                    "name": "ObsoleteLayoutParam"
                },
                {
                    "count": 15,
                    "name": "ExcessiveMethodCalls"
                }
            ]
        },
        {
            "detected eBugs": [
                {
                    "count": 5,
                    "name": "ExcessiveMethodCalls"
                },
                {
                    "count": 3,
                    "name": "ObsoleteLayoutParam"
                },
                {
                    "count": 2,
                    "name": "Recycle"
                }
            ],
            "errors": [],
            "id": "26d2f1e9-0618-449e-82b1-4e635fc7c56e",
            "tests": [],
            "transformed eBugs": [
                {
                    "count": 9,
                    "name": "ObsoleteLayoutParam"
                },
                {
                    "count": 10,
                    "name": "ExcessiveMethodCalls"
                }
            ]
        }
    ],
    "eBugs": [
        "ExcessiveMethodCalls",
        "ObsoleteLayoutParam",
        "Recycle"
    ],
    "id": 152,
    "status": "ongoing",
    "tag": "ExcessiveMethodCalls_ObsoleteLayoutParam_Recycle"
}