{
    "apps": [
        {
            "detected eBugs": [
                {
                    "count": 3,
                    "name": "ExcessiveMethodCalls"
                },
                {
                    "count": 2,
                    "name": "HashMapUsage"
                },
                {
                    "count": 10,
                    "name": "Recycle"
                }
            ],
            "errors": [],
            "id": "48452d82-e260-4dec-8703-383046b3090f",
            "tests": [],
            "transformed eBugs": [
                {
                    "count": 1,
                    "name": "ExcessiveMethodCalls"
                },
                {
                    "count": 2,
                    "name": "HashMapUsage"
                }
            ]
        },
        {
            "detected eBugs": [
                {
                    "count": 5,
                    "name": "ExcessiveMethodCalls"
                },
                {
                    "count": 8,
                    "name": "HashMapUsage"
                },
                {
                    "count": 2,
                    "name": "Recycle"
                }
            ],
            "errors": [],
            "id": "26d2f1e9-0618-449e-82b1-4e635fc7c56e",
            "tests": [],
            "transformed eBugs": [
                {
                    "count": 10,
                    "name": "ExcessiveMethodCalls"
                },
                {
                    "count": 4,
                    "name": "HashMapUsage"
                }
            ]
        },
        {
            "detected eBugs": [
                {
                    "count": 53,
                    "name": "ExcessiveMethodCalls"
                },
                {
                    "count": 21,
                    "name": "HashMapUsage"
                },
                {
                    "count": 7,
                    "name": "Recycle"
                }
            ],
            "errors": [
                "[EXEC] [refactored]Error while building or installing: \n\nFAILURE: Build failed with an exception.\n\n* Where:\nBuild file '/home/marco/temp_apps/01e5d28d-6aa4-4c3c-a890-678aa731db12/_refactored/latest/jobqueue/build.gradle' line: 24\n\n* What went wrong:\nA problem occurred evaluating project ':jobqueue'.\n> Project with path ':com.android.support:support-v4' could not be found in project ':jobqueue'.\n\n* Try:\nRun with --stacktrace option to get the stack trace. Run with --info or --debug option to get more log output.\n"
            ],
            "id": "01e5d28d-6aa4-4c3c-a890-678aa731db12",
            "tests": [],
            "transformed eBugs": [
                {
                    "count": 22,
                    "name": "HashMapUsage"
                },
                {
                    "count": 93,
                    "name": "ExcessiveMethodCalls"
                },
                {
                    "count": 2,
                    "name": "Recycle"
                }
            ]
        },
        {
            "detected eBugs": [
                {
                    "count": 22,
                    "name": "ExcessiveMethodCalls"
                },
                {
                    "count": 1,
                    "name": "HashMapUsage"
                },
                {
                    "count": 1,
                    "name": "Recycle"
                }
            ],
            "errors": [],
            "id": "79c4624a-23dc-4c83-af69-797275107013",
            "tests": [],
            "transformed eBugs": [
                {
                    "count": 8,
                    "name": "ExcessiveMethodCalls"
                }
            ]
        },
        {
            "detected eBugs": [
                {
                    "count": 1,
                    "name": "ExcessiveMethodCalls"
                },
                {
                    "count": 1,
                    "name": "HashMapUsage"
                },
                {
                    "count": 1,
                    "name": "Recycle"
                }
            ],
            "errors": [],
            "id": "22c1e7a6-2a78-4d50-ac56-761ed55b085b",
            "tests": [],
            "transformed eBugs": [
                {
                    "count": 3,
                    "name": "ExcessiveMethodCalls"
                },
                {
                    "count": 2,
                    "name": "HashMapUsage"
                }
            ]
        },
        {
            "detected eBugs": [
                {
                    "count": 17,
                    "name": "ExcessiveMethodCalls"
                },
                {
                    "count": 20,
                    "name": "HashMapUsage"
                },
                {
                    "count": 1,
                    "name": "Recycle"
                }
            ],
            "errors": [],
            "id": "d86eda53-2d06-455d-bc16-46b9d83075b7",
            "tests": [],
            "transformed eBugs": [
                {
                    "count": 27,
                    "name": "HashMapUsage"
                },
                {
                    "count": 15,
                    "name": "ExcessiveMethodCalls"
                }
            ]
        },
        {
            "detected eBugs": [
                {
                    "count": 2,
                    "name": "ExcessiveMethodCalls"
                },
                {
                    "count": 8,
                    "name": "HashMapUsage"
                },
                {
                    "count": 1,
                    "name": "Recycle"
                }
            ],
            "errors": [],
            "id": "5307f954-2cf5-404c-ad53-0132c2f7a84e",
            "tests": [],
            "transformed eBugs": [
                {
                    "count": 6,
                    "name": "HashMapUsage"
                },
                {
                    "count": 4,
                    "name": "ExcessiveMethodCalls"
                }
            ]
        },
        {
            "detected eBugs": [
                {
                    "count": 1,
                    "name": "ExcessiveMethodCalls"
                },
                {
                    "count": 3,
                    "name": "HashMapUsage"
                },
                {
                    "count": 1,
                    "name": "Recycle"
                }
            ],
            "errors": [],
            "id": "73f57f38-0ed8-42c1-b308-b221cc865058",
            "tests": [],
            "transformed eBugs": [
                {
                    "count": 6,
                    "name": "ExcessiveMethodCalls"
                },
                {
                    "count": 4,
                    "name": "HashMapUsage"
                }
            ]
        },
        {
            "detected eBugs": [
                {
                    "count": 5,
                    "name": "ExcessiveMethodCalls"
                },
                {
                    "count": 1,
                    "name": "HashMapUsage"
                },
                {
                    "count": 1,
                    "name": "Recycle"
                }
            ],
            "errors": [],
            "id": "89307769-5727-42f9-902e-49f1c1fa1ff1",
            "tests": [],
            "transformed eBugs": [
                {
                    "count": 5,
                    "name": "ExcessiveMethodCalls"
                },
                {
                    "count": 1,
                    "name": "HashMapUsage"
                }
            ]
        },
        {
            "detected eBugs": [
                {
                    "count": 6,
                    "name": "ExcessiveMethodCalls"
                },
                {
                    "count": 11,
                    "name": "HashMapUsage"
                },
                {
                    "count": 1,
                    "name": "Recycle"
                }
            ],
            "errors": [],
            "id": "a8afc4d3-8c9c-4fd0-8258-caafa1c591db",
            "tests": [],
            "transformed eBugs": [
                {
                    "count": 6,
                    "name": "ExcessiveMethodCalls"
                },
                {
                    "count": 2,
                    "name": "HashMapUsage"
                }
            ]
        },
        {
            "detected eBugs": [
                {
                    "count": 2,
                    "name": "ExcessiveMethodCalls"
                },
                {
                    "count": 1,
                    "name": "HashMapUsage"
                },
                {
                    "count": 1,
                    "name": "Recycle"
                }
            ],
            "errors": [],
            "id": "1ac4a62b-7e7b-44b2-8df5-af9b3e32f1b7",
            "tests": [],
            "transformed eBugs": [
                {
                    "count": 4,
                    "name": "ExcessiveMethodCalls"
                },
                {
                    "count": 1,
                    "name": "HashMapUsage"
                }
            ]
        },
        {
            "detected eBugs": [
                {
                    "count": 2,
                    "name": "ExcessiveMethodCalls"
                },
                {
                    "count": 1,
                    "name": "HashMapUsage"
                },
                {
                    "count": 1,
                    "name": "Recycle"
                }
            ],
            "errors": [],
            "id": "2776cb32-f26b-4dad-824d-a06dd15602f2",
            "tests": [],
            "transformed eBugs": [
                {
                    "count": 1,
                    "name": "HashMapUsage"
                },
                {
                    "count": 4,
                    "name": "ExcessiveMethodCalls"
                }
            ]
        }
    ],
    "eBugs": [
        "ExcessiveMethodCalls",
        "HashMapUsage",
        "Recycle"
    ],
    "id": 163,
    "status": "ongoing",
    "tag": "ExcessiveMethodCalls_HashMapUsage_Recycle"
}