{
    "apps": [
        {
            "detected eBugs": [
                {
                    "count": 1,
                    "name": "Wakelock"
                },
                {
                    "count": 5,
                    "name": "HashMapUsage"
                }
            ],
            "errors": [],
            "id": "cdebf9b9-f55d-4398-81de-1d8ee907680e",
            "tests": [],
            "transformed eBugs": [
                {
                    "count": 6,
                    "name": "HashMapUsage"
                }
            ]
        }
    ],
    "eBugs": [
        "HashMapUsage",
        "Wakelock"
    ],
    "id": 24,
    "status": "ongoing",
    "tag": "HashMapUsage_Wakelock"
}