{
    "apps": [
        {
            "detected eBugs": [
                {
                    "count": 6,
                    "name": "MemberIgnoringMethod"
                },
                {
                    "count": 2,
                    "name": "ViewHolder"
                }
            ],
            "errors": [
                "[refactored] SLF4J: Class path contains multiple SLF4J bindings.\nSLF4J: Found binding in [bundleresource://997.fwk2120532393:1/org/slf4j/impl/StaticLoggerBinder.class]\nSLF4J: Found binding in [bundleresource://997.fwk2120532393:2/org/slf4j/impl/StaticLoggerBinder.class]\nSLF4J: See http://www.slf4j.org/codes.html#multiple_bindings for an explanation.\nSLF4J: Actual binding is of type [ch.qos.logback.classic.util.ContextSelectorStaticBinder]\norg.eclipse.core.internal.resources.ResourceException: Resource '/ProjUT/de.vogella.android.listactivity' does not exist.\n\tat org.eclipse.core.internal.resources.Resource.checkExists(Resource.java:335)\n\tat org.eclipse.core.internal.resources.Resource.checkAccessible(Resource.java:209)\n\tat org.eclipse.core.internal.resources.Resource.accept(Resource.java:60)\n\tat org.eclipse.core.internal.resources.Resource.accept(Resource.java:52)\n\tat org.eclipse.core.internal.resources.Resource.accept(Resource.java:117)\n\tat org.eclipse.core.internal.resources.Resource.accept(Resource.java:105)\n\tat org.autorefactor.cli.FileUtil.walkMax(FileUtil.java:20)\n\tat org.autorefactor.cli.Refactor.refactorSourceFolder(Refactor.java:79)\n\tat org.autorefactor.cli.Refactor.refactorProject(Refactor.java:156)\n\tat org.autorefactor.cli.AutoRefactor.applyAutoRefactorings(AutoRefactor.java:207)\n\tat org.autorefactor.cli.AutoRefactor.run(AutoRefactor.java:147)\n\tat org.autorefactor.cli.AutoRefactor.start(AutoRefactor.java:83)\n\tat org.eclipse.equinox.internal.app.EclipseAppHandle.run(EclipseAppHandle.java:196)\n\tat org.eclipse.equinox.internal.app.MainApplicationLauncher.run(MainApplicationLauncher.java:32)\n\tat org.eclipse.core.runtime.internal.adaptor.EclipseAppLauncher.runApplication(EclipseAppLauncher.java:134)\n\tat org.eclipse.core.runtime.internal.adaptor.EclipseAppLauncher.start(EclipseAppLauncher.java:104)\n\tat org.eclipse.core.runtime.adaptor.EclipseStarter.run(EclipseStarter.java:388)\n\tat org.eclipse.core.runtime.adaptor.EclipseStarter.run(EclipseStarter.java:243)\n\tat sun.reflect.NativeMethodAccessorImpl.invoke0(Native Method)\n\tat sun.reflect.NativeMethodAccessorImpl.invoke(NativeMethodAccessorImpl.java:62)\n\tat sun.reflect.DelegatingMethodAccessorImpl.invoke(DelegatingMethodAccessorImpl.java:43)\n\tat java.lang.reflect.Method.invoke(Method.java:498)\n\tat org.eclipse.equinox.launcher.Main.invokeFramework(Main.java:653)\n\tat org.eclipse.equinox.launcher.Main.basicRun(Main.java:590)\n\tat org.eclipse.equinox.launcher.Main.run(Main.java:1499)\n\tat org.eclipse.equinox.launcher.Main.main(Main.java:1472)\n"
            ],
            "id": "9c76e9a4-6d81-4127-9da8-3cb167c1dad6",
            "tests": [],
            "transformed eBugs": []
        },
        {
            "detected eBugs": [
                {
                    "count": 8,
                    "name": "MemberIgnoringMethod"
                },
                {
                    "count": 6,
                    "name": "ViewHolder"
                }
            ],
            "errors": [],
            "id": "0147b2a1-7e15-4db0-bcd8-f2673bb10bb2",
            "tests": [
                {
                    "method calls": [
                        {
                            "count": 1,
                            "name": "corp.mahisan.medicinastore.Splash.java:Splash$onCreate"
                        },
                        {
                            "count": 1,
                            "name": "corp.mahisan.medicinastore.Splash.java:Splash$run"
                        },
                        {
                            "count": 1,
                            "name": "corp.mahisan.medicinastore.Splash.java:Splash$onPause"
                        },
                        {
                            "count": 1,
                            "name": "corp.mahisan.medicinastore.Loginact.java:Loginact$onCreate"
                        },
                        {
                            "count": 1,
                            "name": "corp.mahisan.medicinastore.UserSession.java:UserSession$UserSession"
                        },
                        {
                            "count": 1,
                            "name": "corp.mahisan.medicinastore.UserSession.java:UserSession$isUserLoggedIn"
                        }
                    ],
                    "monkey stats": {},
                    "original": {
                        "consumption": [
                            53362.261397500006
                        ],
                        "time": [
                            72342.0
                        ]
                    },
                    "refactored": {
                        "consumption": [
                            52997.81469049999
                        ],
                        "time": [
                            73351.0
                        ]
                    },
                    "seed": 1,
                    "traces": [
                        {
                            "count": 15,
                            "name": "MemberIgnoringMethod"
                        }
                    ]
                },
                {
                    "method calls": [
                        {
                            "count": 1,
                            "name": "corp.mahisan.medicinastore.Splash.java:Splash$onCreate"
                        },
                        {
                            "count": 1,
                            "name": "corp.mahisan.medicinastore.Splash.java:Splash$run"
                        },
                        {
                            "count": 1,
                            "name": "corp.mahisan.medicinastore.Splash.java:Splash$onPause"
                        },
                        {
                            "count": 1,
                            "name": "corp.mahisan.medicinastore.Loginact.java:Loginact$onCreate"
                        },
                        {
                            "count": 1,
                            "name": "corp.mahisan.medicinastore.UserSession.java:UserSession$UserSession"
                        },
                        {
                            "count": 1,
                            "name": "corp.mahisan.medicinastore.UserSession.java:UserSession$isUserLoggedIn"
                        }
                    ],
                    "monkey stats": {},
                    "original": {
                        "consumption": [
                            55220.62110400006
                        ],
                        "time": [
                            77669.0
                        ]
                    },
                    "refactored": {
                        "consumption": [
                            57293.61181649999
                        ],
                        "time": [
                            84938.0
                        ]
                    },
                    "seed": 2,
                    "traces": []
                },
                {
                    "method calls": [
                        {
                            "count": 1,
                            "name": "corp.mahisan.medicinastore.Splash.java:Splash$onCreate"
                        },
                        {
                            "count": 1,
                            "name": "corp.mahisan.medicinastore.Splash.java:Splash$run"
                        },
                        {
                            "count": 1,
                            "name": "corp.mahisan.medicinastore.Splash.java:Splash$onPause"
                        },
                        {
                            "count": 1,
                            "name": "corp.mahisan.medicinastore.Loginact.java:Loginact$onCreate"
                        },
                        {
                            "count": 1,
                            "name": "corp.mahisan.medicinastore.UserSession.java:UserSession$UserSession"
                        },
                        {
                            "count": 1,
                            "name": "corp.mahisan.medicinastore.UserSession.java:UserSession$isUserLoggedIn"
                        },
                        {
                            "count": 1,
                            "name": "corp.mahisan.medicinastore.Loginact.java:Loginact$onClick"
                        },
                        {
                            "count": 1,
                            "name": "corp.mahisan.medicinastore.Register.java:Register$onCreate"
                        }
                    ],
                    "monkey stats": {},
                    "original": {
                        "consumption": [
                            52382.44080650006
                        ],
                        "time": [
                            65627.0
                        ]
                    },
                    "refactored": {
                        "consumption": [
                            52846.12641600006
                        ],
                        "time": [
                            67626.0
                        ]
                    },
                    "seed": 3,
                    "traces": []
                },
                {
                    "method calls": [
                        {
                            "count": 1,
                            "name": "corp.mahisan.medicinastore.Splash.java:Splash$onCreate"
                        },
                        {
                            "count": 1,
                            "name": "corp.mahisan.medicinastore.Splash.java:Splash$run"
                        },
                        {
                            "count": 1,
                            "name": "corp.mahisan.medicinastore.Splash.java:Splash$onPause"
                        },
                        {
                            "count": 1,
                            "name": "corp.mahisan.medicinastore.Loginact.java:Loginact$onCreate"
                        },
                        {
                            "count": 1,
                            "name": "corp.mahisan.medicinastore.UserSession.java:UserSession$UserSession"
                        },
                        {
                            "count": 1,
                            "name": "corp.mahisan.medicinastore.UserSession.java:UserSession$isUserLoggedIn"
                        },
                        {
                            "count": 1,
                            "name": "corp.mahisan.medicinastore.Loginact.java:Loginact$onClick"
                        },
                        {
                            "count": 1,
                            "name": "corp.mahisan.medicinastore.Register.java:Register$onCreate"
                        },
                        {
                            "count": 5,
                            "name": "corp.mahisan.medicinastore.Register.java:Register$onClick"
                        },
                        {
                            "count": 10,
                            "name": "corp.mahisan.medicinastore.Register.java:Register$isValidUsername"
                        },
                        {
                            "count": 5,
                            "name": "corp.mahisan.medicinastore.Register.java:Register$isValidPassword"
                        }
                    ],
                    "monkey stats": {},
                    "original": {
                        "consumption": [
                            58301.319744499975
                        ],
                        "time": [
                            78992.0
                        ]
                    },
                    "refactored": {
                        "consumption": [
                            56569.908448499955
                        ],
                        "time": [
                            72770.0
                        ]
                    },
                    "seed": 4,
                    "traces": [
                        {
                            "count": 15,
                            "name": "MemberIgnoringMethod"
                        }
                    ]
                },
                {
                    "method calls": [
                        {
                            "count": 1,
                            "name": "corp.mahisan.medicinastore.Splash.java:Splash$onCreate"
                        },
                        {
                            "count": 1,
                            "name": "corp.mahisan.medicinastore.Splash.java:Splash$run"
                        },
                        {
                            "count": 1,
                            "name": "corp.mahisan.medicinastore.Splash.java:Splash$onPause"
                        },
                        {
                            "count": 1,
                            "name": "corp.mahisan.medicinastore.Loginact.java:Loginact$onCreate"
                        },
                        {
                            "count": 2,
                            "name": "corp.mahisan.medicinastore.UserSession.java:UserSession$UserSession"
                        },
                        {
                            "count": 3,
                            "name": "corp.mahisan.medicinastore.UserSession.java:UserSession$isUserLoggedIn"
                        },
                        {
                            "count": 1,
                            "name": "corp.mahisan.medicinastore.Loginact.java:Loginact$onClick"
                        },
                        {
                            "count": 1,
                            "name": "corp.mahisan.medicinastore.Login.java:Login$onCreate"
                        }
                    ],
                    "monkey stats": {},
                    "original": {
                        "consumption": [
                            59338.64946099998
                        ],
                        "time": [
                            77325.0
                        ]
                    },
                    "refactored": {
                        "consumption": [
                            55299.25031500004
                        ],
                        "time": [
                            70401.0
                        ]
                    },
                    "seed": 5,
                    "traces": []
                },
                {
                    "method calls": [
                        {
                            "count": 1,
                            "name": "corp.mahisan.medicinastore.Splash.java:Splash$onCreate"
                        },
                        {
                            "count": 1,
                            "name": "corp.mahisan.medicinastore.Splash.java:Splash$run"
                        },
                        {
                            "count": 1,
                            "name": "corp.mahisan.medicinastore.Splash.java:Splash$onPause"
                        },
                        {
                            "count": 1,
                            "name": "corp.mahisan.medicinastore.Loginact.java:Loginact$onCreate"
                        },
                        {
                            "count": 1,
                            "name": "corp.mahisan.medicinastore.UserSession.java:UserSession$UserSession"
                        },
                        {
                            "count": 1,
                            "name": "corp.mahisan.medicinastore.UserSession.java:UserSession$isUserLoggedIn"
                        }
                    ],
                    "monkey stats": {},
                    "original": {
                        "consumption": [
                            55355.588188500056
                        ],
                        "time": [
                            74729.0
                        ]
                    },
                    "refactored": {
                        "consumption": [
                            55356.61863650003
                        ],
                        "time": [
                            71716.0
                        ]
                    },
                    "seed": 6,
                    "traces": []
                },
                {
                    "method calls": [
                        {
                            "count": 1,
                            "name": "corp.mahisan.medicinastore.Splash.java:Splash$onCreate"
                        },
                        {
                            "count": 1,
                            "name": "corp.mahisan.medicinastore.Splash.java:Splash$run"
                        },
                        {
                            "count": 1,
                            "name": "corp.mahisan.medicinastore.Splash.java:Splash$onPause"
                        },
                        {
                            "count": 1,
                            "name": "corp.mahisan.medicinastore.Loginact.java:Loginact$onCreate"
                        },
                        {
                            "count": 1,
                            "name": "corp.mahisan.medicinastore.UserSession.java:UserSession$UserSession"
                        },
                        {
                            "count": 1,
                            "name": "corp.mahisan.medicinastore.UserSession.java:UserSession$isUserLoggedIn"
                        }
                    ],
                    "monkey stats": {},
                    "original": {
                        "consumption": [
                            56696.19534999998
                        ],
                        "time": [
                            81831.0
                        ]
                    },
                    "refactored": {
                        "consumption": [
                            59446.43525199998
                        ],
                        "time": [
                            86977.0
                        ]
                    },
                    "seed": 7,
                    "traces": []
                },
                {
                    "method calls": [
                        {
                            "count": 1,
                            "name": "corp.mahisan.medicinastore.Splash.java:Splash$onCreate"
                        },
                        {
                            "count": 1,
                            "name": "corp.mahisan.medicinastore.Splash.java:Splash$run"
                        },
                        {
                            "count": 1,
                            "name": "corp.mahisan.medicinastore.Splash.java:Splash$onPause"
                        },
                        {
                            "count": 1,
                            "name": "corp.mahisan.medicinastore.Loginact.java:Loginact$onCreate"
                        },
                        {
                            "count": 1,
                            "name": "corp.mahisan.medicinastore.UserSession.java:UserSession$UserSession"
                        },
                        {
                            "count": 1,
                            "name": "corp.mahisan.medicinastore.UserSession.java:UserSession$isUserLoggedIn"
                        },
                        {
                            "count": 1,
                            "name": "corp.mahisan.medicinastore.Loginact.java:Loginact$onClick"
                        },
                        {
                            "count": 1,
                            "name": "corp.mahisan.medicinastore.Register.java:Register$onCreate"
                        }
                    ],
                    "monkey stats": {},
                    "original": {
                        "consumption": [
                            62894.29844949997
                        ],
                        "time": [
                            82215.0
                        ]
                    },
                    "refactored": {
                        "consumption": [
                            62523.725788499956
                        ],
                        "time": [
                            77909.0
                        ]
                    },
                    "seed": 8,
                    "traces": [
                        {
                            "count": 3,
                            "name": "MemberIgnoringMethod"
                        }
                    ]
                },
                {
                    "method calls": [
                        {
                            "count": 1,
                            "name": "corp.mahisan.medicinastore.Splash.java:Splash$onCreate"
                        },
                        {
                            "count": 1,
                            "name": "corp.mahisan.medicinastore.Splash.java:Splash$run"
                        },
                        {
                            "count": 1,
                            "name": "corp.mahisan.medicinastore.Splash.java:Splash$onPause"
                        },
                        {
                            "count": 1,
                            "name": "corp.mahisan.medicinastore.Loginact.java:Loginact$onCreate"
                        },
                        {
                            "count": 2,
                            "name": "corp.mahisan.medicinastore.UserSession.java:UserSession$UserSession"
                        },
                        {
                            "count": 3,
                            "name": "corp.mahisan.medicinastore.UserSession.java:UserSession$isUserLoggedIn"
                        },
                        {
                            "count": 1,
                            "name": "corp.mahisan.medicinastore.Loginact.java:Loginact$onClick"
                        },
                        {
                            "count": 1,
                            "name": "corp.mahisan.medicinastore.Login.java:Login$onCreate"
                        }
                    ],
                    "monkey stats": {},
                    "original": {
                        "consumption": [
                            55766.479912999974
                        ],
                        "time": [
                            78823.0
                        ]
                    },
                    "refactored": {
                        "consumption": [
                            54734.44894550005
                        ],
                        "time": [
                            76216.0
                        ]
                    },
                    "seed": 9,
                    "traces": []
                },
                {
                    "method calls": [
                        {
                            "count": 1,
                            "name": "corp.mahisan.medicinastore.Splash.java:Splash$onCreate"
                        },
                        {
                            "count": 1,
                            "name": "corp.mahisan.medicinastore.Splash.java:Splash$run"
                        },
                        {
                            "count": 1,
                            "name": "corp.mahisan.medicinastore.Splash.java:Splash$onPause"
                        },
                        {
                            "count": 1,
                            "name": "corp.mahisan.medicinastore.Loginact.java:Loginact$onCreate"
                        },
                        {
                            "count": 1,
                            "name": "corp.mahisan.medicinastore.UserSession.java:UserSession$UserSession"
                        },
                        {
                            "count": 1,
                            "name": "corp.mahisan.medicinastore.UserSession.java:UserSession$isUserLoggedIn"
                        }
                    ],
                    "monkey stats": {},
                    "original": {
                        "consumption": [
                            54255.853205499996
                        ],
                        "time": [
                            75359.0
                        ]
                    },
                    "refactored": {
                        "consumption": [
                            51919.71046349996
                        ],
                        "time": [
                            67737.0
                        ]
                    },
                    "seed": 10,
                    "traces": []
                },
                {
                    "method calls": [
                        {
                            "count": 1,
                            "name": "corp.mahisan.medicinastore.Splash.java:Splash$onCreate"
                        },
                        {
                            "count": 1,
                            "name": "corp.mahisan.medicinastore.Splash.java:Splash$run"
                        },
                        {
                            "count": 1,
                            "name": "corp.mahisan.medicinastore.Splash.java:Splash$onPause"
                        },
                        {
                            "count": 1,
                            "name": "corp.mahisan.medicinastore.Loginact.java:Loginact$onCreate"
                        },
                        {
                            "count": 1,
                            "name": "corp.mahisan.medicinastore.UserSession.java:UserSession$UserSession"
                        },
                        {
                            "count": 1,
                            "name": "corp.mahisan.medicinastore.UserSession.java:UserSession$isUserLoggedIn"
                        }
                    ],
                    "monkey stats": {},
                    "original": {
                        "consumption": [
                            55668.81775449999
                        ],
                        "time": [
                            78918.0
                        ]
                    },
                    "refactored": {
                        "consumption": [
                            54490.85230950002
                        ],
                        "time": [
                            77459.0
                        ]
                    },
                    "seed": 11,
                    "traces": []
                },
                {
                    "method calls": [
                        {
                            "count": 1,
                            "name": "corp.mahisan.medicinastore.Splash.java:Splash$onCreate"
                        },
                        {
                            "count": 1,
                            "name": "corp.mahisan.medicinastore.Splash.java:Splash$run"
                        },
                        {
                            "count": 1,
                            "name": "corp.mahisan.medicinastore.Splash.java:Splash$onPause"
                        },
                        {
                            "count": 1,
                            "name": "corp.mahisan.medicinastore.Loginact.java:Loginact$onCreate"
                        },
                        {
                            "count": 1,
                            "name": "corp.mahisan.medicinastore.UserSession.java:UserSession$UserSession"
                        },
                        {
                            "count": 1,
                            "name": "corp.mahisan.medicinastore.UserSession.java:UserSession$isUserLoggedIn"
                        }
                    ],
                    "monkey stats": {},
                    "original": {
                        "consumption": [
                            53688.78802650001
                        ],
                        "time": [
                            73604.0
                        ]
                    },
                    "refactored": {
                        "consumption": [
                            54485.32972149997
                        ],
                        "time": [
                            71006.0
                        ]
                    },
                    "seed": 12,
                    "traces": []
                },
                {
                    "method calls": [
                        {
                            "count": 1,
                            "name": "corp.mahisan.medicinastore.Splash.java:Splash$onCreate"
                        },
                        {
                            "count": 1,
                            "name": "corp.mahisan.medicinastore.Splash.java:Splash$run"
                        },
                        {
                            "count": 1,
                            "name": "corp.mahisan.medicinastore.Splash.java:Splash$onPause"
                        },
                        {
                            "count": 1,
                            "name": "corp.mahisan.medicinastore.Loginact.java:Loginact$onCreate"
                        },
                        {
                            "count": 1,
                            "name": "corp.mahisan.medicinastore.UserSession.java:UserSession$UserSession"
                        },
                        {
                            "count": 1,
                            "name": "corp.mahisan.medicinastore.UserSession.java:UserSession$isUserLoggedIn"
                        },
                        {
                            "count": 1,
                            "name": "corp.mahisan.medicinastore.Loginact.java:Loginact$onClick"
                        },
                        {
                            "count": 1,
                            "name": "corp.mahisan.medicinastore.Register.java:Register$onCreate"
                        }
                    ],
                    "monkey stats": {},
                    "original": {
                        "consumption": [
                            70547.77519900004
                        ],
                        "time": [
                            78757.0
                        ]
                    },
                    "refactored": {
                        "consumption": [
                            71655.23287049992
                        ],
                        "time": [
                            83325.0
                        ]
                    },
                    "seed": 13,
                    "traces": []
                },
                {
                    "method calls": [
                        {
                            "count": 1,
                            "name": "corp.mahisan.medicinastore.Splash.java:Splash$onCreate"
                        },
                        {
                            "count": 1,
                            "name": "corp.mahisan.medicinastore.Splash.java:Splash$run"
                        },
                        {
                            "count": 1,
                            "name": "corp.mahisan.medicinastore.Splash.java:Splash$onPause"
                        },
                        {
                            "count": 1,
                            "name": "corp.mahisan.medicinastore.Loginact.java:Loginact$onCreate"
                        },
                        {
                            "count": 1,
                            "name": "corp.mahisan.medicinastore.UserSession.java:UserSession$UserSession"
                        },
                        {
                            "count": 1,
                            "name": "corp.mahisan.medicinastore.UserSession.java:UserSession$isUserLoggedIn"
                        },
                        {
                            "count": 1,
                            "name": "corp.mahisan.medicinastore.Loginact.java:Loginact$onClick"
                        },
                        {
                            "count": 1,
                            "name": "corp.mahisan.medicinastore.Register.java:Register$onCreate"
                        },
                        {
                            "count": 5,
                            "name": "corp.mahisan.medicinastore.Register.java:Register$onClick"
                        },
                        {
                            "count": 10,
                            "name": "corp.mahisan.medicinastore.Register.java:Register$isValidUsername"
                        },
                        {
                            "count": 5,
                            "name": "corp.mahisan.medicinastore.Register.java:Register$isValidPassword"
                        }
                    ],
                    "monkey stats": {},
                    "original": {
                        "consumption": [
                            57296.72444800004
                        ],
                        "time": [
                            76423.0
                        ]
                    },
                    "refactored": {
                        "consumption": [
                            56584.67289799998
                        ],
                        "time": [
                            77589.0
                        ]
                    },
                    "seed": 14,
                    "traces": [
                        {
                            "count": 15,
                            "name": "MemberIgnoringMethod"
                        }
                    ]
                },
                {
                    "method calls": [
                        {
                            "count": 1,
                            "name": "corp.mahisan.medicinastore.Splash.java:Splash$onCreate"
                        },
                        {
                            "count": 1,
                            "name": "corp.mahisan.medicinastore.Splash.java:Splash$run"
                        },
                        {
                            "count": 1,
                            "name": "corp.mahisan.medicinastore.Splash.java:Splash$onPause"
                        },
                        {
                            "count": 1,
                            "name": "corp.mahisan.medicinastore.Loginact.java:Loginact$onCreate"
                        },
                        {
                            "count": 2,
                            "name": "corp.mahisan.medicinastore.UserSession.java:UserSession$UserSession"
                        },
                        {
                            "count": 3,
                            "name": "corp.mahisan.medicinastore.UserSession.java:UserSession$isUserLoggedIn"
                        },
                        {
                            "count": 1,
                            "name": "corp.mahisan.medicinastore.Loginact.java:Loginact$onClick"
                        },
                        {
                            "count": 1,
                            "name": "corp.mahisan.medicinastore.Login.java:Login$onCreate"
                        }
                    ],
                    "monkey stats": {},
                    "original": {
                        "consumption": [
                            57088.06694299997
                        ],
                        "time": [
                            71615.0
                        ]
                    },
                    "refactored": {
                        "consumption": [
                            57499.12238450002
                        ],
                        "time": [
                            72152.0
                        ]
                    },
                    "seed": 15,
                    "traces": []
                },
                {
                    "method calls": [
                        {
                            "count": 1,
                            "name": "corp.mahisan.medicinastore.Splash.java:Splash$onCreate"
                        },
                        {
                            "count": 1,
                            "name": "corp.mahisan.medicinastore.Splash.java:Splash$run"
                        },
                        {
                            "count": 1,
                            "name": "corp.mahisan.medicinastore.Splash.java:Splash$onPause"
                        },
                        {
                            "count": 1,
                            "name": "corp.mahisan.medicinastore.Loginact.java:Loginact$onCreate"
                        },
                        {
                            "count": 1,
                            "name": "corp.mahisan.medicinastore.UserSession.java:UserSession$UserSession"
                        },
                        {
                            "count": 1,
                            "name": "corp.mahisan.medicinastore.UserSession.java:UserSession$isUserLoggedIn"
                        }
                    ],
                    "monkey stats": {},
                    "original": {
                        "consumption": [
                            55655.816249500014
                        ],
                        "time": [
                            76024.0
                        ]
                    },
                    "refactored": {
                        "consumption": [
                            57918.35891400003
                        ],
                        "time": [
                            84347.0
                        ]
                    },
                    "seed": 16,
                    "traces": []
                },
                {
                    "method calls": [
                        {
                            "count": 1,
                            "name": "corp.mahisan.medicinastore.Splash.java:Splash$onCreate"
                        },
                        {
                            "count": 1,
                            "name": "corp.mahisan.medicinastore.Splash.java:Splash$run"
                        },
                        {
                            "count": 1,
                            "name": "corp.mahisan.medicinastore.Splash.java:Splash$onPause"
                        },
                        {
                            "count": 1,
                            "name": "corp.mahisan.medicinastore.Loginact.java:Loginact$onCreate"
                        },
                        {
                            "count": 1,
                            "name": "corp.mahisan.medicinastore.UserSession.java:UserSession$UserSession"
                        },
                        {
                            "count": 1,
                            "name": "corp.mahisan.medicinastore.UserSession.java:UserSession$isUserLoggedIn"
                        }
                    ],
                    "monkey stats": {},
                    "original": {
                        "consumption": [
                            55054.293125999975
                        ],
                        "time": [
                            73764.0
                        ]
                    },
                    "refactored": {
                        "consumption": [
                            56334.47718000002
                        ],
                        "time": [
                            77818.0
                        ]
                    },
                    "seed": 17,
                    "traces": []
                },
                {
                    "method calls": [
                        {
                            "count": 1,
                            "name": "corp.mahisan.medicinastore.Splash.java:Splash$onCreate"
                        },
                        {
                            "count": 1,
                            "name": "corp.mahisan.medicinastore.Splash.java:Splash$run"
                        },
                        {
                            "count": 1,
                            "name": "corp.mahisan.medicinastore.Splash.java:Splash$onPause"
                        },
                        {
                            "count": 1,
                            "name": "corp.mahisan.medicinastore.Loginact.java:Loginact$onCreate"
                        },
                        {
                            "count": 1,
                            "name": "corp.mahisan.medicinastore.UserSession.java:UserSession$UserSession"
                        },
                        {
                            "count": 1,
                            "name": "corp.mahisan.medicinastore.UserSession.java:UserSession$isUserLoggedIn"
                        },
                        {
                            "count": 1,
                            "name": "corp.mahisan.medicinastore.Loginact.java:Loginact$onClick"
                        },
                        {
                            "count": 1,
                            "name": "corp.mahisan.medicinastore.Register.java:Register$onCreate"
                        }
                    ],
                    "monkey stats": {},
                    "original": {
                        "consumption": [
                            59861.54063250001
                        ],
                        "time": [
                            82486.0
                        ]
                    },
                    "refactored": {
                        "consumption": [
                            58544.137706500056
                        ],
                        "time": [
                            80261.0
                        ]
                    },
                    "seed": 18,
                    "traces": []
                },
                {
                    "method calls": [
                        {
                            "count": 1,
                            "name": "corp.mahisan.medicinastore.Splash.java:Splash$onCreate"
                        },
                        {
                            "count": 1,
                            "name": "corp.mahisan.medicinastore.Splash.java:Splash$run"
                        },
                        {
                            "count": 1,
                            "name": "corp.mahisan.medicinastore.Splash.java:Splash$onPause"
                        },
                        {
                            "count": 1,
                            "name": "corp.mahisan.medicinastore.Loginact.java:Loginact$onCreate"
                        },
                        {
                            "count": 2,
                            "name": "corp.mahisan.medicinastore.UserSession.java:UserSession$UserSession"
                        },
                        {
                            "count": 3,
                            "name": "corp.mahisan.medicinastore.UserSession.java:UserSession$isUserLoggedIn"
                        },
                        {
                            "count": 1,
                            "name": "corp.mahisan.medicinastore.Loginact.java:Loginact$onClick"
                        },
                        {
                            "count": 1,
                            "name": "corp.mahisan.medicinastore.Login.java:Login$onCreate"
                        }
                    ],
                    "monkey stats": {},
                    "original": {
                        "consumption": [
                            57104.86404150007
                        ],
                        "time": [
                            77133.0
                        ]
                    },
                    "refactored": {
                        "consumption": [
                            57011.26261600001
                        ],
                        "time": [
                            78124.0
                        ]
                    },
                    "seed": 19,
                    "traces": []
                },
                {
                    "method calls": [
                        {
                            "count": 1,
                            "name": "corp.mahisan.medicinastore.Splash.java:Splash$onCreate"
                        },
                        {
                            "count": 1,
                            "name": "corp.mahisan.medicinastore.Splash.java:Splash$run"
                        },
                        {
                            "count": 1,
                            "name": "corp.mahisan.medicinastore.Splash.java:Splash$onPause"
                        },
                        {
                            "count": 1,
                            "name": "corp.mahisan.medicinastore.Loginact.java:Loginact$onCreate"
                        },
                        {
                            "count": 2,
                            "name": "corp.mahisan.medicinastore.UserSession.java:UserSession$UserSession"
                        },
                        {
                            "count": 3,
                            "name": "corp.mahisan.medicinastore.UserSession.java:UserSession$isUserLoggedIn"
                        },
                        {
                            "count": 1,
                            "name": "corp.mahisan.medicinastore.Loginact.java:Loginact$onClick"
                        },
                        {
                            "count": 1,
                            "name": "corp.mahisan.medicinastore.Login.java:Login$onCreate"
                        }
                    ],
                    "monkey stats": {},
                    "original": {
                        "consumption": [
                            56447.33438299998
                        ],
                        "time": [
                            77128.0
                        ]
                    },
                    "refactored": {
                        "consumption": [
                            56982.79140600006
                        ],
                        "time": [
                            76772.0
                        ]
                    },
                    "seed": 20,
                    "traces": []
                },
                {
                    "method calls": [
                        {
                            "count": 1,
                            "name": "corp.mahisan.medicinastore.Splash.java:Splash$onCreate"
                        },
                        {
                            "count": 1,
                            "name": "corp.mahisan.medicinastore.Splash.java:Splash$run"
                        },
                        {
                            "count": 1,
                            "name": "corp.mahisan.medicinastore.Splash.java:Splash$onPause"
                        },
                        {
                            "count": 1,
                            "name": "corp.mahisan.medicinastore.Loginact.java:Loginact$onCreate"
                        },
                        {
                            "count": 1,
                            "name": "corp.mahisan.medicinastore.UserSession.java:UserSession$UserSession"
                        },
                        {
                            "count": 1,
                            "name": "corp.mahisan.medicinastore.UserSession.java:UserSession$isUserLoggedIn"
                        }
                    ],
                    "monkey stats": {},
                    "original": {
                        "consumption": [
                            56358.81925449998
                        ],
                        "time": [
                            77624.0
                        ]
                    },
                    "refactored": {
                        "consumption": [
                            55857.7373455
                        ],
                        "time": [
                            77766.0
                        ]
                    },
                    "seed": 21,
                    "traces": []
                },
                {
                    "method calls": [
                        {
                            "count": 1,
                            "name": "corp.mahisan.medicinastore.Splash.java:Splash$onCreate"
                        },
                        {
                            "count": 1,
                            "name": "corp.mahisan.medicinastore.Splash.java:Splash$run"
                        },
                        {
                            "count": 1,
                            "name": "corp.mahisan.medicinastore.Splash.java:Splash$onPause"
                        },
                        {
                            "count": 1,
                            "name": "corp.mahisan.medicinastore.Loginact.java:Loginact$onCreate"
                        },
                        {
                            "count": 2,
                            "name": "corp.mahisan.medicinastore.UserSession.java:UserSession$UserSession"
                        },
                        {
                            "count": 3,
                            "name": "corp.mahisan.medicinastore.UserSession.java:UserSession$isUserLoggedIn"
                        },
                        {
                            "count": 1,
                            "name": "corp.mahisan.medicinastore.Loginact.java:Loginact$onClick"
                        },
                        {
                            "count": 1,
                            "name": "corp.mahisan.medicinastore.Login.java:Login$onCreate"
                        }
                    ],
                    "monkey stats": {},
                    "original": {
                        "consumption": [
                            56451.83922650002
                        ],
                        "time": [
                            72557.0
                        ]
                    },
                    "refactored": {
                        "consumption": [
                            57651.213192499985
                        ],
                        "time": [
                            75472.0
                        ]
                    },
                    "seed": 22,
                    "traces": []
                },
                {
                    "method calls": [
                        {
                            "count": 1,
                            "name": "corp.mahisan.medicinastore.Splash.java:Splash$onCreate"
                        },
                        {
                            "count": 1,
                            "name": "corp.mahisan.medicinastore.Splash.java:Splash$run"
                        },
                        {
                            "count": 1,
                            "name": "corp.mahisan.medicinastore.Splash.java:Splash$onPause"
                        },
                        {
                            "count": 1,
                            "name": "corp.mahisan.medicinastore.Loginact.java:Loginact$onCreate"
                        },
                        {
                            "count": 1,
                            "name": "corp.mahisan.medicinastore.UserSession.java:UserSession$UserSession"
                        },
                        {
                            "count": 1,
                            "name": "corp.mahisan.medicinastore.UserSession.java:UserSession$isUserLoggedIn"
                        }
                    ],
                    "monkey stats": {},
                    "original": {
                        "consumption": [
                            54337.087971500005
                        ],
                        "time": [
                            75829.0
                        ]
                    },
                    "refactored": {
                        "consumption": [
                            56759.56333649999
                        ],
                        "time": [
                            82733.0
                        ]
                    },
                    "seed": 23,
                    "traces": []
                },
                {
                    "method calls": [
                        {
                            "count": 1,
                            "name": "corp.mahisan.medicinastore.Splash.java:Splash$onCreate"
                        },
                        {
                            "count": 1,
                            "name": "corp.mahisan.medicinastore.Splash.java:Splash$run"
                        },
                        {
                            "count": 1,
                            "name": "corp.mahisan.medicinastore.Splash.java:Splash$onPause"
                        },
                        {
                            "count": 1,
                            "name": "corp.mahisan.medicinastore.Loginact.java:Loginact$onCreate"
                        },
                        {
                            "count": 2,
                            "name": "corp.mahisan.medicinastore.UserSession.java:UserSession$UserSession"
                        },
                        {
                            "count": 3,
                            "name": "corp.mahisan.medicinastore.UserSession.java:UserSession$isUserLoggedIn"
                        },
                        {
                            "count": 1,
                            "name": "corp.mahisan.medicinastore.Loginact.java:Loginact$onClick"
                        },
                        {
                            "count": 1,
                            "name": "corp.mahisan.medicinastore.Login.java:Login$onCreate"
                        }
                    ],
                    "monkey stats": {},
                    "original": {
                        "consumption": [
                            58970.812847999994
                        ],
                        "time": [
                            84511.0
                        ]
                    },
                    "refactored": {
                        "consumption": [
                            59399.082404999994
                        ],
                        "time": [
                            77469.0
                        ]
                    },
                    "seed": 24,
                    "traces": []
                },
                {
                    "method calls": [
                        {
                            "count": 1,
                            "name": "corp.mahisan.medicinastore.Splash.java:Splash$onCreate"
                        },
                        {
                            "count": 1,
                            "name": "corp.mahisan.medicinastore.Splash.java:Splash$run"
                        },
                        {
                            "count": 1,
                            "name": "corp.mahisan.medicinastore.Splash.java:Splash$onPause"
                        },
                        {
                            "count": 1,
                            "name": "corp.mahisan.medicinastore.Loginact.java:Loginact$onCreate"
                        },
                        {
                            "count": 1,
                            "name": "corp.mahisan.medicinastore.UserSession.java:UserSession$UserSession"
                        },
                        {
                            "count": 1,
                            "name": "corp.mahisan.medicinastore.UserSession.java:UserSession$isUserLoggedIn"
                        },
                        {
                            "count": 1,
                            "name": "corp.mahisan.medicinastore.Loginact.java:Loginact$onClick"
                        },
                        {
                            "count": 1,
                            "name": "corp.mahisan.medicinastore.Register.java:Register$onCreate"
                        }
                    ],
                    "monkey stats": {},
                    "original": {
                        "consumption": [
                            57261.23085049998
                        ],
                        "time": [
                            80461.0
                        ]
                    },
                    "refactored": {
                        "consumption": [
                            57773.846538499994
                        ],
                        "time": [
                            78940.0
                        ]
                    },
                    "seed": 25,
                    "traces": []
                }
            ],
            "transformed eBugs": [
                {
                    "count": 6,
                    "name": "ViewHolder"
                },
                {
                    "count": 2,
                    "name": "MemberIgnoringMethod"
                }
            ]
        },
        {
            "detected eBugs": [
                {
                    "count": 10,
                    "name": "MemberIgnoringMethod"
                },
                {
                    "count": 1,
                    "name": "ViewHolder"
                }
            ],
            "errors": [
                "[EXEC] [refactored]Error while building or installing: \n/home/marco/temp_apps/6eaf9df9-651f-4a5a-a313-938b51b5dbc0/_refactored/latest/discretebar/src/main/java/org/adw/library/widgets/discreteseekbar/DiscreteSeekBar.java:442: error: non-static method onShowBubble() cannot be referenced from a static context\n\t\t\tonShowBubble();\n\t\t\t^\n/home/marco/temp_apps/6eaf9df9-651f-4a5a-a313-938b51b5dbc0/_refactored/latest/discretebar/src/main/java/org/adw/library/widgets/discreteseekbar/DiscreteSeekBar.java:444: error: non-static method onHideBubble() cannot be referenced from a static context\n\t\t\tonHideBubble();\n\t\t\t^\n2 errors\n\nFAILURE: Build failed with an exception.\n\n* What went wrong:\nExecution failed for task ':discretebar:compileReleaseJavaWithJavac'.\n> Compilation failed; see the compiler error output for details.\n\n* Try:\nRun with --stacktrace option to get the stack trace. Run with --info or --debug option to get more log output.\n"
            ],
            "id": "6eaf9df9-651f-4a5a-a313-938b51b5dbc0",
            "tests": [],
            "transformed eBugs": [
                {
                    "count": 12,
                    "name": "MemberIgnoringMethod"
                },
                {
                    "count": 1,
                    "name": "ViewHolder"
                }
            ]
        }
    ],
    "eBugs": [
        "MemberIgnoringMethod",
        "ViewHolder"
    ],
    "id": 50,
    "status": "ongoing",
    "tag": "MemberIgnoringMethod_ViewHolder"
}