gain,# Fixes,# Hits,# Calls,Impact,Use Ratio
0.1779022976588548,5,3,5103,0.0005878894767783657,0.6
0.18792464095351724,5,3,4494,0.0006675567423230974,0.6
0.21349361186900678,5,3,4510,0.0006651884700665188,0.6
-0.0006549108733380738,5,3,4743,0.0006325110689437065,0.6
-0.022050324098954677,5,3,4208,0.0007129277566539924,0.6
0.016418624304117037,5,3,4957,0.0006052047609441194,0.6
0.0012332660432773873,5,3,4332,0.0006925207756232687,0.6
-0.009699757922970786,5,3,4933,0.000608149199270221,0.6
-0.02125484994502486,5,3,4790,0.0006263048016701461,0.6
-0.009412621674180747,5,3,4327,0.0006933210076265311,0.6
0.005285235529964954,5,3,4279,0.0007010983874737088,0.6
0.21018821639541363,5,3,4494,0.0006675567423230974,0.6
0.230858939128759,5,3,4510,0.0006651884700665188,0.6
0.006424087023513286,5,3,4743,0.0006325110689437065,0.6
0.0226848515015931,5,3,4208,0.0007129277566539924,0.6
0.019062569149618094,5,3,4957,0.0006052047609441194,0.6
0.004638442586071149,5,3,4332,0.0006925207756232687,0.6
0.009425660150047378,5,3,4933,0.000608149199270221,0.6
-0.003320734113029867,5,3,4790,0.0006263048016701461,0.6
0.03719344080938599,5,3,4589,0.0006537371976465461,0.6
-0.017973861809253547,5,3,4727,0.0006346519991537973,0.6
-0.020409613091106258,5,3,4377,0.0006854009595613434,0.6
0.20698466095029586,5,3,4791,0.0006261740763932373,0.6
0.08652776743753778,5,3,4666,0.0006429489927132448,0.6
-0.002329446634416259,5,3,4695,0.0006389776357827476,0.6
