gain,# Fixes,# Hits,# Calls,Impact,Use Ratio
0.15957971060097192,8,0,6,0.0,0.0
0.16775012447072532,8,0,6,0.0,0.0
0.19388673179391397,8,0,8,0.0,0.0
0.2060451715191557,8,0,28,0.0,0.0
0.16713357677069984,8,0,11,0.0,0.0
0.1750136322235067,8,0,6,0.0,0.0
-0.001059510999473175,8,0,6,0.0,0.0
-0.006962459857707717,8,0,8,0.0,0.0
0.02438716269777704,8,0,11,0.0,0.0
-0.0063333160683663415,8,0,6,0.0,0.0
-0.0195486774490908,8,0,6,0.0,0.0
0.0018082563280952875,8,0,6,0.0,0.0
0.05262111380599215,8,0,8,0.0,0.0
-0.00982763278913982,8,0,28,0.0,0.0
-0.00015106068148747475,8,0,11,0.0,0.0
-0.022662669255561846,8,0,6,0.0,0.0
0.00456891156291143,8,0,6,0.0,0.0
-0.029780121328305844,8,0,8,0.0,0.0
0.013939054892424937,8,0,11,0.0,0.0
-0.012229586331530144,8,0,11,0.0,0.0
0.003044073000450865,8,0,6,0.0,0.0
0.03819336758448744,8,0,11,0.0,0.0
-0.01668019738178347,8,0,6,0.0,0.0
-0.0013549913786887796,8,0,11,0.0,0.0
-0.01205181640066706,8,0,8,0.0,0.0
0.19078499494731382,2,1,20,0.05,0.5
0.027943570574826937,2,1,20,0.05,0.5
0.0442243203451278,2,1,20,0.05,0.5
-0.0003572448411226953,2,1,20,0.05,0.5
-0.0008635264705003809,2,1,20,0.05,0.5
0.002650241767923586,2,1,20,0.05,0.5
-0.005472567835228784,2,1,20,0.05,0.5
-0.03448070104359339,2,1,20,0.05,0.5
-0.011595902447561162,2,1,20,0.05,0.5
0.0018946924649755727,2,1,20,0.05,0.5
0.02305225278984555,2,1,20,0.05,0.5
-0.0023276404957911527,2,1,20,0.05,0.5
0.007151514440219851,2,1,20,0.05,0.5
0.003182102249133325,2,1,20,0.05,0.5
0.015868527455443825,2,1,20,0.05,0.5
0.000605039791841163,2,1,20,0.05,0.5
0.000669877227600431,2,1,20,0.05,0.5
-0.0017203357725266736,2,1,20,0.05,0.5
0.012120279606867016,2,1,20,0.05,0.5
0.028735018865797143,2,1,20,0.05,0.5
-0.01681462684963931,2,1,20,0.05,0.5
-0.011952079389209273,2,3,938,0.0031982942430703624,1.5
0.01617490829841978,2,1,20,0.05,0.5
0.031745371739950116,2,1,20,0.05,0.5
0.012418272609161032,2,1,20,0.05,0.5
