gain,# Fixes,# Hits,# Calls,Impact,Use Ratio
0.009743325007745322,4,3,74,0.04054054054054054,0.75
-0.008012901529758887,4,3,74,0.04054054054054054,0.75
-0.016382465931488458,4,3,131,0.022900763358778626,0.75
-0.054932056069317434,4,3,112,0.026785714285714284,0.75
0.011251331055250842,4,4,123,0.032520325203252036,1.0
-0.20372127123125552,4,3,341,0.008797653958944282,0.75
0.1885019732112169,4,3,91,0.03296703296703297,0.75
-0.015224540079764022,4,3,74,0.04054054054054054,0.75
-0.027570467015010213,4,20,923,0.021668472372697724,5.0
0.001783986043447813,4,4,212,0.018867924528301886,1.0
-0.012830627125044536,4,3,74,0.04054054054054054,0.75
-0.0023582524504848668,4,3,74,0.04054054054054054,0.75
-4.046252521738953e-05,4,3,131,0.022900763358778626,0.75
0.011926081462485227,4,3,112,0.026785714285714284,0.75
0.0003404473777088208,4,4,123,0.032520325203252036,1.0
0.1871701397004782,4,3,341,0.008797653958944282,0.75
0.04081278239141288,4,3,91,0.03296703296703297,0.75
0.01960965827220882,4,3,74,0.04054054054054054,0.75
0.08955211150672493,4,20,923,0.021668472372697724,5.0
0.005970338686267737,4,7,367,0.01907356948228883,1.75
0.11833454068669445,4,3,76,0.039473684210526314,0.75
0.1746151343049757,4,5,479,0.010438413361169102,1.25
0.17523048629722773,4,4,125,0.032,1.0
-0.010597868844428789,4,3,121,0.024793388429752067,0.75
0.014368183882381471,4,12,338,0.03550295857988166,3.0
0.17786703692141317,4,3,74,0.04054054054054054,0.75
0.003462770700734542,4,3,74,0.04054054054054054,0.75
0.011164402919252409,4,3,132,0.022727272727272728,0.75
-0.04335415405665661,4,3,113,0.02654867256637168,0.75
-0.1054555679056227,4,4,123,0.032520325203252036,1.0
0.007536261875914245,4,3,337,0.008902077151335312,0.75
0.15228886970042807,4,3,91,0.03296703296703297,0.75
0.013670702292389378,4,3,74,0.04054054054054054,0.75
-0.008470750722697278,4,12,509,0.023575638506876228,3.0
-0.003609955899157889,4,3,142,0.02112676056338028,0.75
0.01259207106672236,4,3,75,0.04,0.75
-0.0006666943629538702,4,3,74,0.04054054054054054,0.75
-0.016780614275531937,4,3,132,0.022727272727272728,0.75
0.008137245385708827,4,3,113,0.02654867256637168,0.75
-0.04213176872451755,4,4,123,0.032520325203252036,1.0
0.16352069929072566,4,3,337,0.008902077151335312,0.75
0.031289195788675284,4,3,91,0.03296703296703297,0.75
-0.15695866471725797,4,3,74,0.04054054054054054,0.75
0.010741484606472937,4,12,509,0.023575638506876228,3.0
-0.012801721567775991,4,7,367,0.01907356948228883,1.75
-0.011285459911011786,4,3,136,0.022058823529411766,0.75
0.21061196191876186,4,5,486,0.0102880658436214,1.25
0.14638329285983256,4,4,125,0.032,1.0
0.010172405713997629,4,3,123,0.024390243902439025,0.75
0.025676470696730125,4,12,337,0.03560830860534125,3.0
