gain,# Fixes,# Hits,# Calls,Impact,Use Ratio
0.06775781376911981,2,1,39,0.02564102564102564,0.5
0.1903086101822017,2,1,28,0.03571428571428571,0.5
0.1935766925265367,2,1,28,0.03571428571428571,0.5
0.16337789198484587,2,1,28,0.03571428571428571,0.5
0.1692225083091884,2,1,28,0.03571428571428571,0.5
0.19150668988797298,2,1,28,0.03571428571428571,0.5
0.19373015767376708,2,1,32,0.03125,0.5
0.15271264848656035,2,1,28,0.03571428571428571,0.5
0.16594793662176477,2,1,28,0.03571428571428571,0.5
0.15973497036973133,2,1,28,0.03571428571428571,0.5
-0.03759413227392888,2,1,28,0.03571428571428571,0.5
0.012764011341996496,2,1,28,0.03571428571428571,0.5
0.024219852722400875,2,1,28,0.03571428571428571,0.5
-0.030329861482409768,2,1,28,0.03571428571428571,0.5
0.012325155408543868,2,1,28,0.03571428571428571,0.5
-0.015329850099180758,2,1,28,0.03571428571428571,0.5
-0.000721459086505741,2,1,32,0.03125,0.5
-0.0051796600299626105,2,1,28,0.03571428571428571,0.5
-0.01977043910006979,2,1,28,0.03571428571428571,0.5
-0.02256997838287453,2,1,28,0.03571428571428571,0.5
-0.012158814299299828,2,1,28,0.03571428571428571,0.5
-0.023600460073162702,2,1,30,0.03333333333333333,0.5
-0.0026814302747817575,2,1,28,0.03571428571428571,0.5
-0.014215630316625538,2,1,33,0.030303030303030304,0.5
0.014101715858819351,2,1,28,0.03571428571428571,0.5
-0.027623150486936452,1,0,19,0.0,0.0
-0.008444522475160206,1,0,19,0.0,0.0
0.008775201584758516,1,0,19,0.0,0.0
0.17749978089732235,1,0,19,0.0,0.0
0.18335129066672312,1,0,19,0.0,0.0
0.1826663157936042,1,0,19,0.0,0.0
0.15959771837056022,1,0,19,0.0,0.0
0.1512270827335939,1,0,19,0.0,0.0
0.17342488996646668,1,0,19,0.0,0.0
0.16791855409274006,1,0,19,0.0,0.0
0.16284120470142985,1,0,19,0.0,0.0
0.15690926269535943,1,0,19,0.0,0.0
0.15171472418297213,1,0,19,0.0,0.0
0.17512496518176426,1,0,19,0.0,0.0
0.1809275700182273,1,0,19,0.0,0.0
0.16635593024507403,1,0,19,0.0,0.0
0.18989123661033872,1,0,19,0.0,0.0
0.18189199580177942,1,0,19,0.0,0.0
0.17543610755243408,1,0,19,0.0,0.0
0.1994446952953144,1,0,19,0.0,0.0
0.17616315018741058,1,0,19,0.0,0.0
-0.013979431411556748,1,0,41,0.0,0.0
0.004435416025373864,1,0,19,0.0,0.0
0.01564614553889017,1,0,19,0.0,0.0
0.0158578361601071,1,0,19,0.0,0.0
0.17230248634200657,6,0,6,0.0,0.0
0.18682671079820903,6,0,6,0.0,0.0
0.18825249515196257,6,0,8,0.0,0.0
0.18940684280102105,6,0,28,0.0,0.0
0.19597682937184516,6,0,11,0.0,0.0
0.1873939311216033,6,0,6,0.0,0.0
0.022935025950568223,6,0,6,0.0,0.0
0.0214364525260782,6,0,8,0.0,0.0
-0.009267269215023185,6,0,11,0.0,0.0
0.007423591764984655,6,0,6,0.0,0.0
-0.00595002693952766,6,0,6,0.0,0.0
0.0024357985623729983,6,0,6,0.0,0.0
0.0037627780119472154,6,0,8,0.0,0.0
0.0021382635961148654,6,0,28,0.0,0.0
0.014331389450771306,6,0,11,0.0,0.0
-0.010766305630339654,6,0,6,0.0,0.0
-0.005013620542707673,6,0,6,0.0,0.0
-0.009737068065825975,6,0,8,0.0,0.0
0.0007967059469462745,6,0,11,0.0,0.0
0.003442973527022951,6,0,11,0.0,0.0
0.00773018788258124,6,0,6,0.0,0.0
0.013385280339716409,6,0,11,0.0,0.0
0.0030206401970882613,6,0,6,0.0,0.0
0.012380325805810019,6,0,11,0.0,0.0
0.007591211918375168,6,0,8,0.0,0.0
0.16688471862530915,1,0,20,0.0,0.0
0.19531678799449967,1,0,20,0.0,0.0
0.18105466636194345,1,0,20,0.0,0.0
0.19504390596524818,1,0,20,0.0,0.0
0.18579902944377058,1,0,20,0.0,0.0
0.20236822476942168,1,0,20,0.0,0.0
0.023880892807378987,1,0,20,0.0,0.0
0.008781106673934738,1,0,20,0.0,0.0
-0.0027451106872207367,1,0,20,0.0,0.0
-0.004950722988807937,1,0,20,0.0,0.0
0.00501374787463736,1,0,20,0.0,0.0
-0.024495410718961677,1,0,20,0.0,0.0
-0.017409998798779178,1,0,20,0.0,0.0
0.00843410028719927,1,0,20,0.0,0.0
0.06045701132167698,1,0,20,0.0,0.0
0.007023821750518192,1,0,20,0.0,0.0
-0.012597516341135194,1,0,20,0.0,0.0
0.0008629966562413457,1,0,20,0.0,0.0
-0.005281134386400306,1,0,20,0.0,0.0
-0.008575683519887722,1,0,20,0.0,0.0
-0.02106432320995586,1,0,20,0.0,0.0
0.0023483964124239596,1,0,941,0.0,0.0
-0.009566711021388407,1,0,20,0.0,0.0
0.020543158538760455,1,0,20,0.0,0.0
-0.008864774857696807,1,0,20,0.0,0.0
